prune ,querySize ,datasetSize ,K ,L ,S ,unitSearchTime ,searchTime ,buildTime ,unitIndexSize ,unitBuildTime ,indexSize , , buildTime , searchTime , total 
0 ,4000 ,16000 ,20 ,128 ,20 ,0.000204470276833 ,0.81788110733 ,3.91448497772 ,520 ,0.000244655311108 ,8320020 , , 978.621244431 , 204470.276833 , 205448.898077 
1 ,4000 ,16000 ,20 ,128 ,20 ,0.00021429425478 ,0.857177019119 ,3.97680711746 ,415 ,0.000248550444841 ,6642544 , , 994.201779366 , 214294.25478 , 215288.456559 
2 ,4000 ,16000 ,20 ,128 ,20 ,0.000142902255058 ,0.571609020233 ,11.2848989964 ,306 ,0.000705306187272 ,4902520 , , 2821.22474909 , 142902.255058 , 145723.479807 
0 ,4000 ,16000 ,20 ,128 ,30 ,0.000247929513454 ,0.991718053818 ,5.05781388283 ,520 ,0.000316113367677 ,8320020 , , 1264.45347071 , 247929.513454 , 249193.966925 
1 ,4000 ,16000 ,20 ,128 ,30 ,0.000262483716011 ,1.04993486404 ,5.3868291378 ,466 ,0.000336676821113 ,7468768 , , 1346.70728445 , 262483.716011 , 263830.423295 
2 ,4000 ,16000 ,20 ,128 ,30 ,0.000132502734661 ,0.530010938644 ,12.9687840939 ,312 ,0.000810549005866 ,5000536 , , 3242.19602346 , 132502.734661 , 135744.930685 
0 ,4000 ,16000 ,20 ,128 ,40 ,0.000275341451168 ,1.10136580467 ,6.23897194862 ,520 ,0.000389935746789 ,8320020 , , 1559.74298716 , 275341.451168 , 276901.194155 
1 ,4000 ,16000 ,20 ,128 ,40 ,0.00028580725193 ,1.14322900772 ,6.45698690414 ,491 ,0.000403561681509 ,7870524 , , 1614.24672604 , 285807.25193 , 287421.498656 
2 ,4000 ,16000 ,20 ,128 ,40 ,0.000133423745632 ,0.533694982529 ,14.105396986 ,315 ,0.000881587311625 ,5051028 , , 3526.3492465 , 133423.745632 , 136950.094879 
0 ,4000 ,16000 ,20 ,160 ,20 ,0.000260403990746 ,1.04161596298 ,5.3193860054 ,648 ,0.000332461625338 ,10368020 , , 1329.84650135 , 260403.990746 , 261733.837247 
1 ,4000 ,16000 ,20 ,160 ,20 ,0.00026511746645 ,1.0604698658 ,5.46886992455 ,429 ,0.000341804370284 ,6871176 , , 1367.21748114 , 265117.46645 , 266484.683931 
2 ,4000 ,16000 ,20 ,160 ,20 ,0.000173363208771 ,0.693452835083 ,14.6091301441 ,345 ,0.000913070634007 ,5535484 , , 3652.28253603 , 173363.208771 , 177015.491307 
0 ,4000 ,16000 ,20 ,160 ,30 ,0.000270260989666 ,1.08104395866 ,6.04240107536 ,648 ,0.00037765006721 ,10368020 , , 1510.60026884 , 270260.989666 , 271771.589935 
1 ,4000 ,16000 ,20 ,160 ,30 ,0.000289008498192 ,1.15603399277 ,6.75872421265 ,499 ,0.00042242026329 ,7996976 , , 1689.68105316 , 289008.498192 , 290698.179245 
2 ,4000 ,16000 ,20 ,160 ,30 ,0.000187623977661 ,0.750495910645 ,15.6289188862 ,350 ,0.000976807430387 ,5611796 , , 3907.22972155 , 187623.977661 , 191531.207383 
0 ,4000 ,16000 ,20 ,160 ,40 ,0.000389972746372 ,1.55989098549 ,7.99897503853 ,648 ,0.000499935939908 ,10368020 , , 1999.74375963 , 389972.746372 , 391972.490132 
1 ,4000 ,16000 ,20 ,160 ,40 ,0.000310075998306 ,1.24030399323 ,8.67486381531 ,559 ,0.000542178988457 ,8959260 , , 2168.71595383 , 310075.998306 , 312244.71426 
2 ,4000 ,16000 ,20 ,160 ,40 ,0.000157501280308 ,0.630005121231 ,17.9213051796 ,356 ,0.00112008157372 ,5701440 , , 4480.3262949 , 157501.280308 , 161981.606603 
0 ,4000 ,16000 ,40 ,128 ,20 ,0.000305754959583 ,1.22301983833 ,5.15420103073 ,520 ,0.000322137564421 ,8320020 , , 1288.55025768 , 305754.959583 , 307043.509841 
1 ,4000 ,16000 ,40 ,128 ,20 ,0.000330944240093 ,1.32377696037 ,5.37166404724 ,473 ,0.000335729002953 ,7576728 , , 1342.91601181 , 330944.240093 , 332287.156105 
2 ,4000 ,16000 ,40 ,128 ,20 ,0.000172230780125 ,0.688923120499 ,12.6266670227 ,309 ,0.000789166688919 ,4954144 , , 3156.66675568 , 172230.780125 , 175387.44688 
0 ,4000 ,16000 ,40 ,128 ,30 ,0.000325562775135 ,1.30225110054 ,5.9221739769 ,520 ,0.000370135873556 ,8320020 , , 1480.54349422 , 325562.775135 , 327043.318629 
1 ,4000 ,16000 ,40 ,128 ,30 ,0.000330504238605 ,1.32201695442 ,6.14183521271 ,501 ,0.000383864700794 ,8022024 , , 1535.45880318 , 330504.238605 , 332039.697409 
2 ,4000 ,16000 ,40 ,128 ,30 ,0.000136979997158 ,0.547919988632 ,13.7649068832 ,313 ,0.000860306680202 ,5018960 , , 3441.22672081 , 136979.997158 , 140421.223879 
0 ,4000 ,16000 ,40 ,128 ,40 ,0.000328376531601 ,1.3135061264 ,6.68346595764 ,520 ,0.000417716622353 ,8320020 , , 1670.86648941 , 328376.531601 , 330047.39809 
1 ,4000 ,16000 ,40 ,128 ,40 ,0.000335934996605 ,1.34373998642 ,6.8736641407 ,512 ,0.000429604008794 ,8204396 , , 1718.41603518 , 335934.996605 , 337653.41264 
2 ,4000 ,16000 ,40 ,128 ,40 ,0.000125131726265 ,0.50052690506 ,14.5058748722 ,316 ,0.000906617179513 ,5062068 , , 3626.46871805 , 125131.726265 , 128758.194983 
0 ,4000 ,16000 ,40 ,160 ,20 ,0.00032762825489 ,1.31051301956 ,6.25189113617 ,648 ,0.000390743196011 ,10368020 , , 1562.97278404 , 327628.25489 , 329191.227674 
1 ,4000 ,16000 ,40 ,160 ,20 ,0.00033487200737 ,1.33948802948 ,6.57848501205 ,509 ,0.000411155313253 ,8157420 , , 1644.62125301 , 334872.00737 , 336516.628623 
2 ,4000 ,16000 ,40 ,160 ,20 ,0.000207183241844 ,0.828732967377 ,15.9065721035 ,349 ,0.000994160756469 ,5597560 , , 3976.64302588 , 207183.241844 , 211159.88487 
0 ,4000 ,16000 ,40 ,160 ,30 ,0.000342459261417 ,1.36983704567 ,7.3178999424 ,648 ,0.0004573687464 ,10368020 , , 1829.4749856 , 342459.261417 , 344288.736403 
1 ,4000 ,16000 ,40 ,160 ,30 ,0.000333601295948 ,1.33440518379 ,6.73959803581 ,516 ,0.000421224877238 ,8266376 , , 1684.89950895 , 333601.295948 , 335286.195457 
2 ,4000 ,16000 ,40 ,160 ,30 ,0.000238584518433 ,0.95433807373 ,16.2018668652 ,352 ,0.00101261667907 ,5633208 , , 4050.46671629 , 238584.518433 , 242634.985149 
0 ,4000 ,16000 ,40 ,160 ,40 ,0.000356923997402 ,1.42769598961 ,8.46637701988 ,648 ,0.000529148563743 ,10368020 , , 2116.59425497 , 356923.997402 , 359040.591657 
1 ,4000 ,16000 ,40 ,160 ,40 ,0.00035956120491 ,1.43824481964 ,8.72006702423 ,605 ,0.000545004189014 ,9690616 , , 2180.01675606 , 359561.20491 , 361741.221666 
2 ,4000 ,16000 ,40 ,160 ,40 ,0.000174377262592 ,0.697509050369 ,18.4811058044 ,357 ,0.00115506911278 ,5714328 , , 4620.27645111 , 174377.262592 , 178997.539043 
0 ,4000 ,32000 ,20 ,128 ,20 ,0.000339279770851 ,1.3571190834 ,11.9516720772 ,520 ,0.000373489752412 ,16640020 , , 1493.95900965 , 169639.885426 , 171133.844435 
1 ,4000 ,32000 ,20 ,128 ,20 ,0.00034085047245 ,1.3634018898 ,12.2360808849 ,452 ,0.000382377527654 ,14494356 , , 1529.51011062 , 170425.236225 , 171954.746336 
2 ,4000 ,32000 ,20 ,128 ,20 ,0.000173710227013 ,0.694840908051 ,30.391960144 ,331 ,0.000949748754501 ,10599072 , , 3798.99501801 , 86855.1135063 , 90654.1085243 
0 ,4000 ,32000 ,20 ,128 ,30 ,0.000347799539566 ,1.39119815826 ,13.9004259109 ,520 ,0.000434388309717 ,16640020 , , 1737.55323887 , 173899.769783 , 175637.323022 
1 ,4000 ,32000 ,20 ,128 ,30 ,0.000447461783886 ,1.78984713554 ,14.9472589493 ,493 ,0.000467101842165 ,15797312 , , 1868.40736866 , 223730.891943 , 225599.299312 
2 ,4000 ,32000 ,20 ,128 ,30 ,0.000144493699074 ,0.577974796295 ,33.8980238438 ,339 ,0.00105931324512 ,10875776 , , 4237.25298047 , 72246.8495369 , 76484.1025174 
0 ,4000 ,32000 ,20 ,128 ,40 ,0.000365500032902 ,1.46200013161 ,15.8604969978 ,520 ,0.000495640531182 ,16640020 , , 1982.56212473 , 182750.016451 , 184732.578576 
1 ,4000 ,32000 ,20 ,128 ,40 ,0.000383000016212 ,1.53200006485 ,16.5508999825 ,506 ,0.000517215624452 ,16222948 , , 2068.86249781 , 191500.008106 , 193568.870604 
2 ,4000 ,32000 ,20 ,128 ,40 ,0.000133753538132 ,0.535014152527 ,35.6816670895 ,344 ,0.00111505209655 ,11031792 , , 4460.20838618 , 66876.7690659 , 71336.977452 
0 ,4000 ,32000 ,20 ,160 ,20 ,0.00035538649559 ,1.42154598236 ,13.4867830276 ,648 ,0.000421461969614 ,20736020 , , 1685.84787846 , 177693.247795 , 179379.095674 
1 ,4000 ,32000 ,20 ,160 ,20 ,0.000362069964409 ,1.44827985764 ,14.1342639923 ,482 ,0.00044169574976 ,15437668 , , 1766.78299904 , 181034.982204 , 182801.765203 
2 ,4000 ,32000 ,20 ,160 ,20 ,0.000209040284157 ,0.836161136627 ,37.8138480186 ,380 ,0.00118168275058 ,12168908 , , 4726.73100233 , 104520.142078 , 109246.873081 
0 ,4000 ,32000 ,20 ,160 ,30 ,0.000381062030792 ,1.52424812317 ,16.4509541988 ,648 ,0.000514092318714 ,20736020 , , 2056.36927485 , 190531.015396 , 192587.384671 
1 ,4000 ,32000 ,20 ,160 ,30 ,0.000393772482872 ,1.57508993149 ,17.2541429996 ,558 ,0.000539191968739 ,17861880 , , 2156.76787496 , 196886.241436 , 199043.009311 
2 ,4000 ,32000 ,20 ,160 ,30 ,0.000198857724667 ,0.795430898666 ,42.0607509613 ,390 ,0.00131439846754 ,12481040 , , 5257.59387016 , 99428.8623333 , 104686.456203 
0 ,4000 ,32000 ,20 ,160 ,40 ,0.000417066991329 ,1.66826796532 ,19.1185441017 ,648 ,0.000597454503179 ,20736020 , , 2389.81801271 , 208533.495665 , 210923.313677 
1 ,4000 ,32000 ,20 ,160 ,40 ,0.000400471746922 ,1.60188698769 ,19.087608099 ,584 ,0.000596487753093 ,18715892 , , 2385.95101237 , 200235.873461 , 202621.824473 
2 ,4000 ,32000 ,20 ,160 ,40 ,0.000179375231266 ,0.717500925064 ,44.3674180508 ,394 ,0.00138648181409 ,12625492 , , 5545.92725635 , 89687.615633 , 95233.5428894 
0 ,4000 ,32000 ,40 ,128 ,20 ,0.00039770501852 ,1.59082007408 ,12.2958009243 ,520 ,0.000384243778884 ,16640020 , , 1536.97511554 , 198852.50926 , 200389.484376 
1 ,4000 ,32000 ,40 ,128 ,20 ,0.000403053998947 ,1.61221599579 ,13.0169460773 ,498 ,0.000406779564917 ,15956680 , , 1627.11825967 , 201526.999474 , 203154.117733 
2 ,4000 ,32000 ,40 ,128 ,20 ,0.000165385961533 ,0.66154384613 ,31.483150959 ,334 ,0.000983848467469 ,10701600 , , 3935.39386988 , 82692.9807663 , 86628.3746362 
0 ,4000 ,32000 ,40 ,128 ,30 ,0.000413284003735 ,1.65313601494 ,14.3035628796 ,520 ,0.000446986339986 ,16640020 , , 1787.94535995 , 206642.001867 , 208429.947227 
1 ,4000 ,32000 ,40 ,128 ,30 ,0.000421911537647 ,1.68764615059 ,14.9506402016 ,515 ,0.000467207506299 ,16490060 , , 1868.8300252 , 210955.768824 , 212824.598849 
2 ,4000 ,32000 ,40 ,128 ,30 ,0.000139949738979 ,0.559798955917 ,33.876912117 ,341 ,0.00105865350366 ,10916156 , , 4234.61401463 , 69974.8694897 , 74209.4835043 
0 ,4000 ,32000 ,40 ,128 ,40 ,0.000420574486256 ,1.68229794502 ,15.9929909706 ,520 ,0.000499780967832 ,16640020 , , 1999.12387133 , 210287.243128 , 212286.366999 
1 ,4000 ,32000 ,40 ,128 ,40 ,0.00042348074913 ,1.69392299652 ,16.7644388676 ,517 ,0.000523888714612 ,16572192 , , 2095.55485845 , 211740.374565 , 213835.929424 
2 ,4000 ,32000 ,40 ,128 ,40 ,0.000145563483238 ,0.582253932953 ,35.9562389851 ,345 ,0.00112363246828 ,11050408 , , 4494.52987313 , 72781.7416191 , 77276.2714922 
0 ,4000 ,32000 ,40 ,160 ,20 ,0.000435729980469 ,1.74291992188 ,15.378303051 ,648 ,0.000480571970344 ,20736020 , , 1922.28788137 , 217864.990234 , 219787.278116 
1 ,4000 ,32000 ,40 ,160 ,20 ,0.000455349266529 ,1.82139706612 ,16.0686099529 ,566 ,0.000502144061029 ,18136968 , , 2008.57624412 , 227674.633265 , 229683.209509 
2 ,4000 ,32000 ,40 ,160 ,20 ,0.000231067240238 ,0.924268960953 ,40.5065460205 ,386 ,0.00126582956314 ,12357232 , , 5063.31825256 , 115533.620119 , 120596.938372 
0 ,4000 ,32000 ,40 ,160 ,30 ,0.000517832517624 ,2.0713300705 ,17.8076500893 ,648 ,0.000556489065289 ,20736020 , , 2225.95626116 , 258916.258812 , 261142.215073 
1 ,4000 ,32000 ,40 ,160 ,30 ,0.000478883504868 ,1.91553401947 ,19.6378769875 ,616 ,0.000613683655858 ,19714204 , , 2454.73462343 , 239441.752434 , 241896.487057 
2 ,4000 ,32000 ,40 ,160 ,30 ,0.00018891698122 ,0.755667924881 ,43.5597259998 ,392 ,0.00136124143749 ,12570772 , , 5444.96574998 , 94458.4906101 , 99903.4563601 
0 ,4000 ,32000 ,40 ,160 ,40 ,0.000476170480251 ,1.90468192101 ,19.6229279041 ,648 ,0.000613216497004 ,20736020 , , 2452.86598802 , 238085.240126 , 240538.106114 
1 ,4000 ,32000 ,40 ,160 ,40 ,0.000481390476227 ,1.92556190491 ,19.7125818729 ,624 ,0.000616018183529 ,19986284 , , 2464.07273412 , 240695.238113 , 243159.310848 
2 ,4000 ,32000 ,40 ,160 ,40 ,0.000177105247974 ,0.708420991898 ,44.7886760235 ,395 ,0.00139964612573 ,12657084 , , 5598.58450294 , 88552.6239872 , 94151.2084901 
0 ,4000 ,64000 ,20 ,128 ,20 ,0.0003979357481 ,1.5917429924 ,28.8596611023 ,520 ,0.000450932204723 ,33280020 , , 1803.72881889 , 99483.9370251 , 101287.665844 
1 ,4000 ,64000 ,20 ,128 ,20 ,0.000387365460396 ,1.54946184158 ,29.8162050247 ,478 ,0.000465878203511 ,30615736 , , 1863.51281404 , 96841.365099 , 98704.877913 
2 ,4000 ,64000 ,20 ,128 ,20 ,0.00017592549324 ,0.703701972961 ,73.4219191074 ,351 ,0.00114721748605 ,22520876 , , 4588.86994421 , 43981.3733101 , 48570.2432543 
0 ,4000 ,64000 ,20 ,128 ,30 ,0.000398678541183 ,1.59471416473 ,33.5202960968 ,520 ,0.000523754626513 ,33280020 , , 2095.01850605 , 99669.6352959 , 101764.653802 
1 ,4000 ,64000 ,20 ,128 ,30 ,0.000413473963737 ,1.65389585495 ,36.302382946 ,508 ,0.000567224733531 ,32513312 , , 2268.89893413 , 103368.490934 , 105637.389868 
2 ,4000 ,64000 ,20 ,128 ,30 ,0.000154137253761 ,0.616549015045 ,80.6107628345 ,361 ,0.00125954316929 ,23161500 , , 5038.17267716 , 38534.3134403 , 43572.4861175 
0 ,4000 ,64000 ,20 ,128 ,40 ,0.000405748486519 ,1.62299394608 ,36.9157230854 ,520 ,0.000576808173209 ,33280020 , , 2307.23269284 , 101437.12163 , 103744.354323 
1 ,4000 ,64000 ,20 ,128 ,40 ,0.000422960042953 ,1.69184017181 ,39.1046311855 ,514 ,0.000611009862274 ,32947604 , , 2444.0394491 , 105740.010738 , 108184.050187 
2 ,4000 ,64000 ,20 ,128 ,40 ,0.000149466753006 ,0.597867012024 ,85.4651489258 ,366 ,0.00133539295197 ,23461328 , , 5341.57180786 , 37366.6882515 , 42708.2600594 
0 ,4000 ,64000 ,20 ,160 ,20 ,0.000453223466873 ,1.81289386749 ,33.4775028229 ,648 ,0.000523085981607 ,41472020 , , 2092.34392643 , 113305.866718 , 115398.210645 
1 ,4000 ,64000 ,20 ,160 ,20 ,0.000420733511448 ,1.68293404579 ,36.4542071819 ,531 ,0.000569596987218 ,34005720 , , 2278.38794887 , 105183.377862 , 107461.765811 
2 ,4000 ,64000 ,20 ,160 ,20 ,0.000217769742012 ,0.871078968048 ,94.0035090446 ,408 ,0.00146880482882 ,26114524 , , 5875.21931529 , 54442.435503 , 60317.6548183 
0 ,4000 ,64000 ,20 ,160 ,30 ,0.000459522724152 ,1.83809089661 ,40.6537020206 ,648 ,0.000635214094073 ,41472020 , , 2540.85637629 , 114880.681038 , 117421.537414 
1 ,4000 ,64000 ,20 ,160 ,30 ,0.000468388259411 ,1.87355303764 ,42.7227492332 ,598 ,0.000667542956769 ,38301184 , , 2670.17182708 , 117097.064853 , 119767.23668 
2 ,4000 ,64000 ,20 ,160 ,30 ,0.000199460029602 ,0.797840118408 ,104.162129879 ,421 ,0.00162753327936 ,26962216 , , 6510.13311744 , 49865.0074005 , 56375.140518 
0 ,4000 ,64000 ,20 ,160 ,40 ,0.000488467037678 ,1.95386815071 ,47.0112509727 ,648 ,0.000734550796449 ,41472020 , , 2938.2031858 , 122116.759419 , 125054.962605 
1 ,4000 ,64000 ,20 ,160 ,40 ,0.000497056722641 ,1.98822689056 ,48.5993909836 ,624 ,0.000759365484118 ,39993392 , , 3037.46193647 , 124264.18066 , 127301.642597 
2 ,4000 ,64000 ,20 ,160 ,40 ,0.000182789504528 ,0.731158018112 ,112.062443018 ,428 ,0.00175097567216 ,27432472 , , 7003.90268862 , 45697.376132 , 52701.2788206 
0 ,4000 ,64000 ,40 ,128 ,20 ,0.000460665762424 ,1.8426630497 ,30.3640649319 ,520 ,0.00047443851456 ,33280020 , , 1897.75405824 , 115166.440606 , 117064.194664 
1 ,4000 ,64000 ,40 ,128 ,20 ,0.000475211977959 ,1.90084791183 ,31.7798240185 ,510 ,0.000496559750289 ,32690156 , , 1986.23900115 , 118802.99449 , 120789.233491 
2 ,4000 ,64000 ,40 ,128 ,20 ,0.000171900749207 ,0.687602996826 ,76.7076971531 ,355 ,0.00119855776802 ,22757824 , , 4794.23107207 , 42975.1873016 , 47769.4183737 
0 ,4000 ,64000 ,40 ,128 ,30 ,0.000473500967026 ,1.8940038681 ,33.8533332348 ,520 ,0.000528958331794 ,33280020 , , 2115.83332717 , 118375.241756 , 120491.075084 
1 ,4000 ,64000 ,40 ,128 ,30 ,0.000479908466339 ,1.91963386536 ,35.9185929298 ,518 ,0.000561228014529 ,33183880 , , 2244.91205812 , 119977.116585 , 122222.028643 
2 ,4000 ,64000 ,40 ,128 ,30 ,0.000158910036087 ,0.635640144348 ,81.2842850685 ,363 ,0.0012700669542 ,23238928 , , 5080.26781678 , 39727.5090218 , 44807.7768385 
0 ,4000 ,64000 ,40 ,128 ,40 ,0.000480290234089 ,1.92116093636 ,37.0650150776 ,520 ,0.000579140860587 ,33280020 , , 2316.56344235 , 120072.558522 , 122389.121965 
1 ,4000 ,64000 ,40 ,128 ,40 ,0.000487007200718 ,1.94802880287 ,39.25720191 ,519 ,0.000613393779844 ,33260316 , , 2453.57511938 , 121751.800179 , 124205.375299 
2 ,4000 ,64000 ,40 ,128 ,40 ,0.00016079300642 ,0.643172025681 ,87.2472600937 ,367 ,0.00136323843896 ,23499480 , , 5452.95375586 , 40198.251605 , 45651.2053609 
0 ,4000 ,64000 ,40 ,160 ,20 ,0.000536930501461 ,2.14772200584 ,37.3284080029 ,648 ,0.000583256375045 ,41472020 , , 2333.02550018 , 134232.625365 , 136565.650865 
1 ,4000 ,64000 ,40 ,160 ,20 ,0.000550467014313 ,2.20186805725 ,39.264359951 ,606 ,0.000613505624235 ,38813156 , , 2454.02249694 , 137616.753578 , 140070.776075 
2 ,4000 ,64000 ,40 ,160 ,20 ,0.000217304706573 ,0.869218826294 ,98.8044397831 ,414 ,0.00154381937161 ,26540660 , , 6175.27748644 , 54326.1766434 , 60501.4541298 
0 ,4000 ,64000 ,40 ,160 ,30 ,0.000560719966888 ,2.24287986755 ,42.0020711422 ,648 ,0.000656282361597 ,41472020 , , 2625.12944639 , 140179.991722 , 142805.121168 
1 ,4000 ,64000 ,40 ,160 ,30 ,0.000557843029499 ,2.231372118 ,45.6805250645 ,636 ,0.000713758204132 ,40727828 , , 2855.03281653 , 139460.757375 , 142315.790191 
2 ,4000 ,64000 ,40 ,160 ,30 ,0.000180544734001 ,0.722178936005 ,108.849818945 ,424 ,0.00170077842101 ,27139984 , , 6803.11368406 , 45136.1835003 , 51939.2971843 
0 ,4000 ,64000 ,40 ,160 ,40 ,0.000558883786201 ,2.23553514481 ,46.9890120029 ,648 ,0.000734203312546 ,41472020 , , 2936.81325018 , 139720.94655 , 142657.759801 
1 ,4000 ,64000 ,40 ,160 ,40 ,0.000572534501553 ,2.29013800621 ,49.4416539669 ,644 ,0.000772525843233 ,41273728 , , 3090.10337293 , 143133.625388 , 146223.728761 
2 ,4000 ,64000 ,40 ,160 ,40 ,0.000173666775227 ,0.694667100906 ,113.012043953 ,429 ,0.00176581318676 ,27514800 , , 7063.25274706 , 43416.6938066 , 50479.9465537 
0 ,4000 ,128000 ,20 ,128 ,20 ,0.000435351252556 ,1.74140501022 ,70.3024690151 ,520 ,0.000549238039181 ,66560020 , , 2196.95215672 , 54418.9065695 , 56615.8587262 
1 ,4000 ,128000 ,20 ,128 ,20 ,0.000453138232231 ,1.81255292892 ,73.0892920494 ,495 ,0.000571010094136 ,63408580 , , 2284.04037654 , 56642.2790289 , 58926.3194054 
2 ,4000 ,128000 ,20 ,128 ,20 ,0.000183749735355 ,0.734998941422 ,174.135257959 ,367 ,0.00136043170281 ,47001592 , , 5441.72681123 , 22968.7169194 , 28410.4437307 
0 ,4000 ,128000 ,20 ,128 ,30 ,0.000464996695518 ,1.85998678207 ,81.0199501514 ,520 ,0.000632968360558 ,66560020 , , 2531.87344223 , 58124.5869398 , 60656.460382 
1 ,4000 ,128000 ,20 ,128 ,30 ,0.000453844964504 ,1.81537985802 ,83.8202180862 ,513 ,0.000654845453799 ,65737344 , , 2619.3818152 , 56730.620563 , 59350.0023782 
2 ,4000 ,128000 ,20 ,128 ,30 ,0.000171964764595 ,0.68785905838 ,188.023412943 ,377 ,0.00146893291362 ,48283848 , , 5875.73165447 , 21495.5955744 , 27371.3272288 
0 ,4000 ,128000 ,20 ,128 ,40 ,0.000455949008465 ,1.82379603386 ,88.821903944 ,520 ,0.000693921124563 ,66560020 , , 2775.68449825 , 56993.6260581 , 59769.3105564 
1 ,4000 ,128000 ,20 ,128 ,40 ,0.000472162008286 ,1.88864803314 ,92.0243988037 ,518 ,0.000718940615654 ,66320160 , , 2875.76246262 , 59020.2510357 , 61896.0134983 
2 ,4000 ,128000 ,20 ,128 ,40 ,0.000174000740051 ,0.696002960205 ,199.577975988 ,382 ,0.00155920293741 ,49001568 , , 6236.81174964 , 21750.0925064 , 27986.904256 
0 ,4000 ,128000 ,20 ,160 ,20 ,0.000500775754452 ,2.00310301781 ,84.7913329601 ,648 ,0.000662432288751 ,82944020 , , 2649.729155 , 62596.9693065 , 65246.6984615 
1 ,4000 ,128000 ,20 ,160 ,20 ,0.000494400024414 ,1.97760009766 ,89.1276700497 ,571 ,0.000696309922263 ,73145388 , , 2785.23968905 , 61800.0030518 , 64585.2427408 
2 ,4000 ,128000 ,20 ,160 ,20 ,0.000243753492832 ,0.975013971329 ,227.542402983 ,432 ,0.0017776750233 ,55344296 , , 7110.70009321 , 30469.186604 , 37579.8866972 
0 ,4000 ,128000 ,20 ,160 ,30 ,0.000529083490372 ,2.11633396149 ,101.621381044 ,648 ,0.000793917039409 ,82944020 , , 3175.66815764 , 66135.4362965 , 69311.1044541 
1 ,4000 ,128000 ,20 ,160 ,30 ,0.000557897746563 ,2.23159098625 ,105.98873806 ,620 ,0.000828037016094 ,79386424 , , 3312.14806437 , 69737.2183204 , 73049.3663847 
2 ,4000 ,128000 ,20 ,160 ,30 ,0.00020839124918 ,0.833564996719 ,254.436155081 ,445 ,0.00198778246157 ,57080068 , , 7951.12984627 , 26048.9061475 , 34000.0359938 
0 ,4000 ,128000 ,20 ,160 ,40 ,0.000557979047298 ,2.23191618919 ,113.531630993 ,648 ,0.000886965867132 ,82944020 , , 3547.86346853 , 69747.3809123 , 73295.2443808 
1 ,4000 ,128000 ,20 ,160 ,40 ,0.000544294238091 ,2.17717695236 ,116.597357035 ,636 ,0.000910916851833 ,81521400 , , 3643.66740733 , 68036.7797613 , 71680.4471686 
2 ,4000 ,128000 ,20 ,160 ,40 ,0.000206889510155 ,0.827558040619 ,267.877645016 ,453 ,0.00209279410169 ,58079540 , , 8371.17640674 , 25861.1887693 , 34232.3651761 
0 ,4000 ,128000 ,40 ,128 ,20 ,0.00053231626749 ,2.12926506996 ,74.1885349751 ,520 ,0.000579597929493 ,66560020 , , 2318.39171797 , 66539.5334363 , 68857.9251543 
1 ,4000 ,128000 ,40 ,128 ,20 ,0.000576255500317 ,2.30502200127 ,76.8800809383 ,515 ,0.000600625632331 ,65999488 , , 2402.50252932 , 72031.9375396 , 74434.4400689 
2 ,4000 ,128000 ,40 ,128 ,20 ,0.000204933524132 ,0.819734096527 ,179.515171051 ,370 ,0.00140246227384 ,47428768 , , 5609.84909534 , 25616.6905165 , 31226.5396118 
0 ,4000 ,128000 ,40 ,128 ,30 ,0.000546911537647 ,2.18764615059 ,81.765141964 ,520 ,0.000638790171593 ,66560020 , , 2555.16068637 , 68363.9422059 , 70919.1028923 
1 ,4000 ,128000 ,40 ,128 ,30 ,0.000541620492935 ,2.16648197174 ,86.3887410164 ,519 ,0.000674912039191 ,66502700 , , 2699.64815676 , 67702.5616169 , 70402.2097737 
2 ,4000 ,128000 ,40 ,128 ,30 ,0.000195772528648 ,0.783090114594 ,190.166847944 ,378 ,0.00148567849956 ,48436504 , , 5942.71399826 , 24471.566081 , 30414.2800793 
0 ,4000 ,128000 ,40 ,128 ,40 ,0.000550791501999 ,2.203166008 ,91.2721421719 ,520 ,0.000713063610718 ,66560020 , , 2852.25444287 , 68848.9377499 , 71701.1921927 
1 ,4000 ,128000 ,40 ,128 ,40 ,0.000557064950466 ,2.22825980186 ,93.0837860107 ,519 ,0.000727217078209 ,66550828 , , 2908.86831284 , 69633.1188083 , 72541.9871211 
2 ,4000 ,128000 ,40 ,128 ,40 ,0.00020322149992 ,0.81288599968 ,200.797136068 ,383 ,0.00156872762553 ,49057516 , , 6274.91050214 , 25402.68749 , 31677.5979921 
0 ,4000 ,128000 ,40 ,160 ,20 ,0.000632000505924 ,2.5280020237 ,93.5948109627 ,648 ,0.000731209460646 ,82944020 , , 2924.83784258 , 79000.0632405 , 81924.9010831 
1 ,4000 ,128000 ,40 ,160 ,20 ,0.000630295455456 ,2.52118182182 ,97.1480569839 ,625 ,0.000758969195187 ,80122280 , , 3035.87678075 , 78786.931932 , 81822.8087127 
2 ,4000 ,128000 ,40 ,160 ,20 ,0.0002421682477 ,0.968672990799 ,238.736816883 ,438 ,0.0018651313819 ,56150040 , , 7460.5255276 , 30271.0309625 , 37731.5564901 
0 ,4000 ,128000 ,40 ,160 ,30 ,0.000639193236828 ,2.55677294731 ,106.272350073 ,648 ,0.000830252734944 ,82944020 , , 3321.01093978 , 79899.1546035 , 83220.1655433 
1 ,4000 ,128000 ,40 ,160 ,30 ,0.000675438225269 ,2.70175290108 ,110.720096111 ,643 ,0.00086500075087 ,82419516 , , 3460.00300348 , 84429.7781587 , 87889.7811621 
2 ,4000 ,128000 ,40 ,160 ,30 ,0.00022317045927 ,0.892681837082 ,258.53789115 ,448 ,0.00201982727461 ,57454312 , , 8079.30909842 , 27896.3074088 , 35975.6165072 
0 ,4000 ,128000 ,40 ,160 ,40 ,0.00067259901762 ,2.69039607048 ,116.154258966 ,648 ,0.000907455148175 ,82944020 , , 3629.8205927 , 84074.8772025 , 87704.6977952 
1 ,4000 ,128000 ,40 ,160 ,40 ,0.000641076743603 ,2.56430697441 ,119.005290031 ,646 ,0.000929728828371 ,82804656 , , 3718.91531348 , 80134.5929503 , 83853.5082638 
2 ,4000 ,128000 ,40 ,160 ,40 ,0.000219006478786 ,0.876025915146 ,270.35364604 ,454 ,0.00211213785969 ,58229312 , , 8448.55143875 , 27375.8098483 , 35824.3612871 
0 ,8000 ,16000 ,20 ,128 ,20 ,0.00023965126276 ,1.91721010208 ,4.44554185867 ,520 ,0.000277846366167 ,8320020 , , 1111.38546467 , 239651.26276 , 240762.648225 
1 ,8000 ,16000 ,20 ,128 ,20 ,0.000253019988537 ,2.02415990829 ,4.61819410324 ,414 ,0.000288637131453 ,6637592 , , 1154.54852581 , 253019.988537 , 254174.537063 
2 ,8000 ,16000 ,20 ,128 ,20 ,0.000157496869564 ,1.25997495651 ,11.8671088219 ,306 ,0.000741694301367 ,4901300 , , 2966.77720547 , 157496.869564 , 160463.64677 
0 ,8000 ,16000 ,20 ,128 ,30 ,0.000267087489367 ,2.13669991493 ,5.35662984848 ,520 ,0.00033478936553 ,8320020 , , 1339.15746212 , 267087.489367 , 268426.646829 
1 ,8000 ,16000 ,20 ,128 ,30 ,0.000272339373827 ,2.17871499062 ,5.76723384857 ,466 ,0.000360452115536 ,7471504 , , 1441.80846214 , 272339.373827 , 273781.182289 
2 ,8000 ,16000 ,20 ,128 ,30 ,0.000144119888544 ,1.15295910835 ,13.2766640186 ,312 ,0.000829791501164 ,5003140 , , 3319.16600466 , 144119.888544 , 147439.054549 
0 ,8000 ,16000 ,20 ,128 ,40 ,0.000283571273088 ,2.26857018471 ,6.53385591507 ,520 ,0.000408365994692 ,8320020 , , 1633.46397877 , 283571.273088 , 285204.737067 
1 ,8000 ,16000 ,20 ,128 ,40 ,0.000286886006594 ,2.29508805275 ,6.72488594055 ,492 ,0.000420305371284 ,7881184 , , 1681.22148514 , 286886.006594 , 288567.228079 
2 ,8000 ,16000 ,20 ,128 ,40 ,0.000137472003698 ,1.09977602959 ,14.3318839073 ,315 ,0.000895742744207 ,5054352 , , 3582.97097683 , 137472.003698 , 141054.974675 
0 ,8000 ,16000 ,20 ,160 ,20 ,0.000259235620499 ,2.07388496399 ,5.48777890205 ,648 ,0.000342986181378 ,10368020 , , 1371.94472551 , 259235.620499 , 260607.565224 
1 ,8000 ,16000 ,20 ,160 ,20 ,0.000269282639027 ,2.15426111221 ,5.59625887871 ,428 ,0.000349766179919 ,6853432 , , 1399.06471968 , 269282.639027 , 270681.703746 
2 ,8000 ,16000 ,20 ,160 ,20 ,0.000215178996325 ,1.7214319706 ,14.8782961369 ,346 ,0.000929893508554 ,5537660 , , 3719.57403421 , 215178.996325 , 218898.570359 
0 ,8000 ,16000 ,20 ,160 ,30 ,0.000281034618616 ,2.24827694893 ,6.96394896507 ,648 ,0.000435246810317 ,10368020 , , 1740.98724127 , 281034.618616 , 282775.605857 
1 ,8000 ,16000 ,20 ,160 ,30 ,0.000281657487154 ,2.25325989723 ,6.30754613876 ,472 ,0.000394221633673 ,7567660 , , 1576.88653469 , 281657.487154 , 283234.373689 
2 ,8000 ,16000 ,20 ,160 ,30 ,0.000190558761358 ,1.52447009087 ,15.7715439796 ,350 ,0.000985721498728 ,5614944 , , 3942.88599491 , 190558.761358 , 194501.647353 
0 ,8000 ,16000 ,20 ,160 ,40 ,0.000308071374893 ,2.46457099915 ,8.03732013702 ,648 ,0.000502332508564 ,10368020 , , 2009.33003426 , 308071.374893 , 310080.704927 
1 ,8000 ,16000 ,20 ,160 ,40 ,0.000319249242544 ,2.55399394035 ,8.23660588264 ,558 ,0.000514787867665 ,8938832 , , 2059.15147066 , 319249.242544 , 321308.394015 
2 ,8000 ,16000 ,20 ,160 ,40 ,0.00015971711278 ,1.27773690224 ,17.9461760521 ,356 ,0.00112163600326 ,5702908 , , 4486.54401302 , 159717.11278 , 164203.656793 
0 ,8000 ,16000 ,40 ,128 ,20 ,0.000314802885056 ,2.51842308044 ,5.25813889503 ,520 ,0.00032863368094 ,8320020 , , 1314.53472376 , 314802.885056 , 316117.419779 
1 ,8000 ,16000 ,40 ,128 ,20 ,0.000323106378317 ,2.58485102654 ,5.39847397804 ,474 ,0.000337404623628 ,7584504 , , 1349.61849451 , 323106.378317 , 324455.996811 
2 ,8000 ,16000 ,40 ,128 ,20 ,0.00017519274354 ,1.40154194832 ,12.7376260757 ,309 ,0.000796101629734 ,4949572 , , 3184.40651894 , 175192.74354 , 178377.150059 
0 ,8000 ,16000 ,40 ,128 ,30 ,0.0003400413692 ,2.7203309536 ,6.04781699181 ,520 ,0.000377988561988 ,8320020 , , 1511.95424795 , 340041.3692 , 341553.323448 
1 ,8000 ,16000 ,40 ,128 ,30 ,0.000331713140011 ,2.65370512009 ,6.21265411377 ,501 ,0.000388290882111 ,8019284 , , 1553.16352844 , 331713.140011 , 333266.303539 
2 ,8000 ,16000 ,40 ,128 ,30 ,0.000143975138664 ,1.15180110931 ,13.5918390751 ,313 ,0.000849489942193 ,5018368 , , 3397.95976877 , 143975.138664 , 147373.098433 
0 ,8000 ,16000 ,40 ,128 ,40 ,0.000332802355289 ,2.66241884232 ,6.8165102005 ,520 ,0.000426031887531 ,8320020 , , 1704.12755013 , 332802.355289 , 334506.48284 
1 ,8000 ,16000 ,40 ,128 ,40 ,0.000335193753242 ,2.68155002594 ,6.95148706436 ,512 ,0.000434467941523 ,8194496 , , 1737.87176609 , 335193.753242 , 336931.625009 
2 ,8000 ,16000 ,40 ,128 ,40 ,0.000131320267916 ,1.05056214333 ,14.4602379799 ,316 ,0.000903764873743 ,5063788 , , 3615.05949497 , 131320.267916 , 134935.327411 
0 ,8000 ,16000 ,40 ,160 ,20 ,0.000321583747864 ,2.57266998291 ,6.24259305 ,648 ,0.000390162065625 ,10368020 , , 1560.6482625 , 321583.747864 , 323144.396126 
1 ,8000 ,16000 ,40 ,160 ,20 ,0.000325075149536 ,2.60060119629 ,6.36896800995 ,501 ,0.000398060500622 ,8027272 , , 1592.24200249 , 325075.149536 , 326667.391539 
2 ,8000 ,16000 ,40 ,160 ,20 ,0.000218115478754 ,1.74492383003 ,15.8500568867 ,349 ,0.000990628555417 ,5592852 , , 3962.51422167 , 218115.478754 , 222077.992976 
0 ,8000 ,16000 ,40 ,160 ,30 ,0.000322936743498 ,2.58349394798 ,6.44253182411 ,648 ,0.000402658239007 ,10368020 , , 1610.63295603 , 322936.743498 , 324547.376454 
1 ,8000 ,16000 ,40 ,160 ,30 ,0.000331376999617 ,2.65101599693 ,6.77958083153 ,516 ,0.00042372380197 ,8264464 , , 1694.89520788 , 331376.999617 , 333071.894825 
2 ,8000 ,16000 ,40 ,160 ,30 ,0.000234974503517 ,1.87979602814 ,16.0923900604 ,351 ,0.00100577437878 ,5628144 , , 4023.09751511 , 234974.503517 , 238997.601032 
0 ,8000 ,16000 ,40 ,160 ,40 ,0.000355202764273 ,2.84162211418 ,8.45464491844 ,648 ,0.000528415307403 ,10368020 , , 2113.66122961 , 355202.764273 , 357316.425502 
1 ,8000 ,16000 ,40 ,160 ,40 ,0.000362562894821 ,2.90050315857 ,8.71174001694 ,606 ,0.000544483751059 ,9703044 , , 2177.93500423 , 362562.894821 , 364740.829825 
2 ,8000 ,16000 ,40 ,160 ,40 ,0.000173955887556 ,1.39164710045 ,18.410861969 ,357 ,0.00115067887306 ,5712940 , , 4602.71549225 , 173955.887556 , 178558.603048 
0 ,8000 ,32000 ,20 ,128 ,20 ,0.000326835989952 ,2.61468791962 ,11.9012210369 ,520 ,0.000371913157403 ,16640020 , , 1487.65262961 , 163417.994976 , 164905.647606 
1 ,8000 ,32000 ,20 ,128 ,20 ,0.000331845134497 ,2.65476107597 ,13.2463040352 ,452 ,0.0004139470011 ,14472564 , , 1655.7880044 , 165922.567248 , 167578.355253 
2 ,8000 ,32000 ,20 ,128 ,20 ,0.000172805249691 ,1.38244199753 ,30.1022188663 ,330 ,0.000940694339573 ,10591332 , , 3762.77735829 , 86402.6248455 , 90165.4022038 
0 ,8000 ,32000 ,20 ,128 ,30 ,0.000348336607218 ,2.78669285774 ,13.7980980873 ,520 ,0.000431190565228 ,16640020 , , 1724.76226091 , 174168.303609 , 175893.06587 
1 ,8000 ,32000 ,20 ,128 ,30 ,0.000355683505535 ,2.84546804428 ,14.3675670624 ,493 ,0.000448986470699 ,15792292 , , 1795.9458828 , 177841.752768 , 179637.69865 
2 ,8000 ,32000 ,20 ,128 ,30 ,0.000149659365416 ,1.19727492332 ,33.1443419456 ,339 ,0.0010357606858 ,10871868 , , 4143.04274321 , 74829.6827078 , 78972.725451 
0 ,8000 ,32000 ,20 ,128 ,40 ,0.000354108005762 ,2.8328640461 ,15.7489681244 ,520 ,0.000492155253887 ,16640020 , , 1968.62101555 , 177054.002881 , 179022.623897 
1 ,8000 ,32000 ,20 ,128 ,40 ,0.000356194376945 ,2.84955501556 ,16.4423089027 ,506 ,0.000513822153211 ,16217128 , , 2055.28861284 , 178097.188473 , 180152.477086 
2 ,8000 ,32000 ,20 ,128 ,40 ,0.000143715620041 ,1.14972496033 ,35.5083808899 ,344 ,0.00110963690281 ,11025700 , , 4438.54761124 , 71857.8100204 , 76296.3576317 
0 ,8000 ,32000 ,20 ,160 ,20 ,0.000348259240389 ,2.78607392311 ,13.3776237965 ,648 ,0.000418050743639 ,20736020 , , 1672.20297456 , 174129.620194 , 175801.823169 
1 ,8000 ,32000 ,20 ,160 ,20 ,0.000350567519665 ,2.80454015732 ,14.0311350822 ,483 ,0.00043847297132 ,15456644 , , 1753.89188528 , 175283.759832 , 177037.651718 
2 ,8000 ,32000 ,20 ,160 ,20 ,0.00021213260293 ,1.69706082344 ,37.6841862202 ,380 ,0.00117763081938 ,12163456 , , 4710.52327752 , 106066.301465 , 110776.824743 
0 ,8000 ,32000 ,20 ,160 ,30 ,0.000376670509577 ,3.01336407661 ,16.3451070786 ,648 ,0.000510784596205 ,20736020 , , 2043.13838482 , 188335.254788 , 190378.393173 
1 ,8000 ,32000 ,20 ,160 ,30 ,0.000388894498348 ,3.11115598679 ,17.2007899284 ,557 ,0.000537524685264 ,17855968 , , 2150.09874105 , 194447.249174 , 196597.347915 
2 ,8000 ,32000 ,20 ,160 ,30 ,0.000197516769171 ,1.58013415337 ,43.1817691326 ,390 ,0.00134943028539 ,12487000 , , 5397.72114158 , 98758.3845854 , 104156.105727 
0 ,8000 ,32000 ,20 ,160 ,40 ,0.000393748104572 ,3.14998483658 ,18.0154509544 ,648 ,0.000562982842326 ,20736020 , , 2251.9313693 , 196874.052286 , 199125.983655 
1 ,8000 ,32000 ,20 ,160 ,40 ,0.000397551864386 ,3.18041491508 ,18.8736729622 ,584 ,0.000589802280068 ,18696932 , , 2359.20912027 , 198775.932193 , 201135.141313 
2 ,8000 ,32000 ,20 ,160 ,40 ,0.000181275129318 ,1.45020103455 ,43.9082298279 ,394 ,0.00137213218212 ,12628032 , , 5488.52872849 , 90637.5646591 , 96126.0933876 
0 ,8000 ,32000 ,40 ,128 ,20 ,0.00039678350091 ,3.17426800728 ,12.3130431175 ,520 ,0.000384782597423 ,16640020 , , 1539.13038969 , 198391.750455 , 199930.880845 
1 ,8000 ,32000 ,40 ,128 ,20 ,0.000407289475203 ,3.25831580162 ,12.7867441177 ,498 ,0.000399585753679 ,15962532 , , 1598.34301472 , 203644.737601 , 205243.080616 
2 ,8000 ,32000 ,40 ,128 ,20 ,0.000169006735086 ,1.35205388069 ,31.2378411293 ,334 ,0.000976182535291 ,10702420 , , 3904.73014116 , 84503.3675432 , 88408.0976844 
0 ,8000 ,32000 ,40 ,128 ,30 ,0.000408701866865 ,3.26961493492 ,14.1226289272 ,520 ,0.000441332153976 ,16640020 , , 1765.3286159 , 204350.933433 , 206116.262048 
1 ,8000 ,32000 ,40 ,128 ,30 ,0.000414512991905 ,3.31610393524 ,14.854295969 ,515 ,0.000464196749032 ,16494828 , , 1856.78699613 , 207256.495953 , 209113.282949 
2 ,8000 ,32000 ,40 ,128 ,30 ,0.000146206140518 ,1.16964912415 ,33.6025681496 ,341 ,0.00105008025467 ,10915968 , , 4200.3210187 , 73103.0702591 , 77303.3912778 
0 ,8000 ,32000 ,40 ,128 ,40 ,0.000407112896442 ,3.25690317154 ,15.7975828648 ,520 ,0.000493674464524 ,16640020 , , 1974.6978581 , 203556.448221 , 205531.146079 
1 ,8000 ,32000 ,40 ,128 ,40 ,0.000414584249258 ,3.31667399406 ,16.6057391167 ,517 ,0.000518929347396 ,16574644 , , 2075.71738958 , 207292.124629 , 209367.842019 
2 ,8000 ,32000 ,40 ,128 ,40 ,0.000141579985619 ,1.13263988495 ,35.8469297886 ,345 ,0.00112021655589 ,11045500 , , 4480.86622357 , 70789.9928093 , 75270.8590329 
0 ,8000 ,32000 ,40 ,160 ,20 ,0.000436134129763 ,3.4890730381 ,16.3964459896 ,648 ,0.000512388937175 ,20736020 , , 2049.5557487 , 218067.064881 , 220116.62063 
1 ,8000 ,32000 ,40 ,160 ,20 ,0.000446082621813 ,3.5686609745 ,15.9650449753 ,566 ,0.000498907655478 ,18117744 , , 1995.63062191 , 223041.310906 , 225036.941528 
2 ,8000 ,32000 ,40 ,160 ,20 ,0.000232607126236 ,1.86085700989 ,40.3549089432 ,386 ,0.00126109090447 ,12358200 , , 5044.3636179 , 116303.563118 , 121347.926736 
0 ,8000 ,32000 ,40 ,160 ,30 ,0.00045327064395 ,3.6261651516 ,17.47189188 ,648 ,0.000545996621251 ,20736020 , , 2183.986485 , 226635.321975 , 228819.30846 
1 ,8000 ,32000 ,40 ,160 ,30 ,0.000468952387571 ,3.75161910057 ,18.5236799717 ,615 ,0.000578864999115 ,19710256 , , 2315.45999646 , 234476.193786 , 236791.653782 
2 ,8000 ,32000 ,40 ,160 ,30 ,0.000198755502701 ,1.59004402161 ,43.5113859177 ,393 ,0.00135973080993 ,12577864 , , 5438.92323971 , 99377.7513504 , 104816.67459 
0 ,8000 ,32000 ,40 ,160 ,40 ,0.00046617436409 ,3.72939491272 ,18.6329791546 ,648 ,0.000582280598581 ,20736020 , , 2329.12239432 , 233087.182045 , 235416.304439 
1 ,8000 ,32000 ,40 ,160 ,40 ,0.000478688001633 ,3.82950401306 ,20.5467381477 ,631 ,0.000642085567117 ,20204444 , , 2568.34226847 , 239344.000816 , 241912.343085 
2 ,8000 ,32000 ,40 ,160 ,40 ,0.000171290010214 ,1.37032008171 ,46.0463039875 ,396 ,0.00143894699961 ,12693892 , , 5755.78799844 , 85645.0051069 , 91400.7931054 
0 ,8000 ,64000 ,20 ,128 ,20 ,0.000384932994843 ,3.07946395874 ,28.282697916 ,520 ,0.000441917154938 ,33280020 , , 1767.66861975 , 96233.2487106 , 98000.9173304 
1 ,8000 ,64000 ,20 ,128 ,20 ,0.000389839887619 ,3.11871910095 ,30.9241528511 ,478 ,0.000483189888299 ,30626124 , , 1932.75955319 , 97459.9719048 , 99392.7314579 
2 ,8000 ,64000 ,20 ,128 ,20 ,0.000171933740377 ,1.37546992302 ,73.2711491585 ,352 ,0.0011448617056 ,22537672 , , 4579.4468224 , 42983.4350944 , 47562.8819168 
0 ,8000 ,64000 ,20 ,128 ,30 ,0.000410173386335 ,3.28138709068 ,33.1214880943 ,520 ,0.000517523251474 ,33280020 , , 2070.0930059 , 102543.346584 , 104613.43959 
1 ,8000 ,64000 ,20 ,128 ,30 ,0.000404029875994 ,3.23223900795 ,35.0108850002 ,507 ,0.000547045078129 ,32495900 , , 2188.18031251 , 101007.468998 , 103195.649311 
2 ,8000 ,64000 ,20 ,128 ,30 ,0.000154110372066 ,1.23288297653 ,80.273537159 ,361 ,0.00125427401811 ,23163952 , , 5017.09607244 , 38527.5930166 , 43544.6890891 
0 ,8000 ,64000 ,20 ,128 ,40 ,0.000407635748386 ,3.26108598709 ,36.830103159 ,520 ,0.000575470361859 ,33280020 , , 2301.88144743 , 101908.937097 , 104210.818544 
1 ,8000 ,64000 ,20 ,128 ,40 ,0.000411160230637 ,3.28928184509 ,38.915443182 ,515 ,0.000608053799719 ,32961696 , , 2432.21519887 , 102790.057659 , 105222.272858 
2 ,8000 ,64000 ,20 ,128 ,40 ,0.000148886263371 ,1.19109010696 ,86.0220899582 ,366 ,0.0013440951556 ,23466956 , , 5376.38062239 , 37221.5658426 , 42597.946465 
0 ,8000 ,64000 ,20 ,160 ,20 ,0.000418197751045 ,3.34558200836 ,33.1578299999 ,648 ,0.000518091093749 ,41472020 , , 2072.364375 , 104549.437761 , 106621.802136 
1 ,8000 ,64000 ,20 ,160 ,20 ,0.000428744763136 ,3.42995810509 ,35.1577749252 ,531 ,0.000549340233207 ,34041040 , , 2197.36093283 , 107186.190784 , 109383.551717 
2 ,8000 ,64000 ,20 ,160 ,20 ,0.000226385265589 ,1.81108212471 ,93.4808781147 ,408 ,0.00146063872054 ,26113540 , , 5842.55488217 , 56596.3163972 , 62438.8712794 
0 ,8000 ,64000 ,20 ,160 ,30 ,0.000457539737225 ,3.6603178978 ,39.9851679802 ,648 ,0.000624768249691 ,41472020 , , 2499.07299876 , 114384.934306 , 116884.007305 
1 ,8000 ,64000 ,20 ,160 ,30 ,0.000496995121241 ,3.97596096992 ,42.1334941387 ,597 ,0.000658335845917 ,38265372 , , 2633.34338367 , 124248.78031 , 126882.123694 
2 ,8000 ,64000 ,20 ,160 ,30 ,0.000197930127382 ,1.58344101906 ,105.876528025 ,421 ,0.00165432075039 ,26952948 , , 6617.28300154 , 49482.5318456 , 56099.8148471 
0 ,8000 ,64000 ,20 ,160 ,40 ,0.000474236637354 ,3.79389309883 ,46.0780029297 ,648 ,0.000719968795776 ,41472020 , , 2879.87518311 , 118559.159338 , 121439.034522 
1 ,8000 ,64000 ,20 ,160 ,40 ,0.000483364880085 ,3.86691904068 ,48.1116909981 ,625 ,0.000751745171845 ,40001660 , , 3006.98068738 , 120841.220021 , 123848.200709 
2 ,8000 ,64000 ,20 ,160 ,40 ,0.000182214617729 ,1.45771694183 ,111.738388062 ,428 ,0.00174591231346 ,27437372 , , 6983.64925385 , 45553.6544323 , 52537.3036861 
0 ,8000 ,64000 ,40 ,128 ,20 ,0.000463262498379 ,3.70609998703 ,29.8306500912 ,520 ,0.000466103907675 ,33280020 , , 1864.4156307 , 115815.624595 , 117680.040225 
1 ,8000 ,64000 ,40 ,128 ,20 ,0.000471510499716 ,3.77208399773 ,31.5462739468 ,510 ,0.000492910530418 ,32692300 , , 1971.64212167 , 117877.624929 , 119849.267051 
2 ,8000 ,64000 ,40 ,128 ,20 ,0.00017389523983 ,1.39116191864 ,75.630507946 ,355 ,0.00118172668666 ,22765196 , , 4726.90674663 , 43473.8099575 , 48200.7167041 
0 ,8000 ,64000 ,40 ,128 ,30 ,0.000476949632168 ,3.81559705734 ,33.8866870403 ,520 ,0.000529479485005 ,33280020 , , 2117.91794002 , 119237.408042 , 121355.325982 
1 ,8000 ,64000 ,40 ,128 ,30 ,0.000476876497269 ,3.81501197815 ,36.0623440742 ,518 ,0.00056347412616 ,33191224 , , 2253.89650464 , 119219.124317 , 121473.020822 
2 ,8000 ,64000 ,40 ,128 ,30 ,0.000169101983309 ,1.35281586647 ,81.4774229527 ,363 ,0.00127308473364 ,23240596 , , 5092.33893454 , 42275.4958272 , 47367.8347617 
0 ,8000 ,64000 ,40 ,128 ,40 ,0.000471251875162 ,3.7700150013 ,38.2008929253 ,520 ,0.000596888951957 ,33280020 , , 2387.55580783 , 117812.968791 , 120200.524598 
1 ,8000 ,64000 ,40 ,128 ,40 ,0.000479920119047 ,3.83936095238 ,39.2927379608 ,519 ,0.000613949030638 ,33259104 , , 2455.79612255 , 119980.029762 , 122435.825884 
2 ,8000 ,64000 ,40 ,128 ,40 ,0.000167434483767 ,1.33947587013 ,85.9478600025 ,367 ,0.00134293531254 ,23496884 , , 5371.74125016 , 41858.6209416 , 47230.3621918 
0 ,8000 ,64000 ,40 ,160 ,20 ,0.000545185387135 ,4.36148309708 ,36.8520591259 ,648 ,0.000575813423842 ,41472020 , , 2303.25369537 , 136296.346784 , 138599.600479 
1 ,8000 ,64000 ,40 ,160 ,20 ,0.000544582247734 ,4.35665798187 ,39.1616809368 ,606 ,0.000611901264638 ,38807412 , , 2447.60505855 , 136145.561934 , 138593.166992 
2 ,8000 ,64000 ,40 ,160 ,20 ,0.00022539049387 ,1.80312395096 ,99.3388371468 ,414 ,0.00155216933042 ,26540036 , , 6208.67732167 , 56347.6234674 , 62556.3007891 
0 ,8000 ,64000 ,40 ,160 ,30 ,0.000545805633068 ,4.36644506454 ,41.8388421535 ,648 ,0.000653731908649 ,41472020 , , 2614.9276346 , 136451.408267 , 139066.335902 
1 ,8000 ,64000 ,40 ,160 ,30 ,0.000560549139977 ,4.48439311981 ,44.1451940536 ,636 ,0.000689768657088 ,40754704 , , 2759.07462835 , 140137.284994 , 142896.359622 
2 ,8000 ,64000 ,40 ,160 ,30 ,0.000186402499676 ,1.49121999741 ,106.465191841 ,424 ,0.00166351862252 ,27142672 , , 6654.07449007 , 46600.6249189 , 53254.699409 
0 ,8000 ,64000 ,40 ,160 ,40 ,0.000557830125093 ,4.46264100075 ,46.3805019855 ,648 ,0.000724695343524 ,41472020 , , 2898.7813741 , 139457.531273 , 142356.312647 
1 ,8000 ,64000 ,40 ,160 ,40 ,0.000599670261145 ,4.79736208916 ,49.6172409058 ,644 ,0.000775269389153 ,41264816 , , 3101.07755661 , 149917.565286 , 153018.642843 
2 ,8000 ,64000 ,40 ,160 ,40 ,0.000176516383886 ,1.41213107109 ,112.915034056 ,429 ,0.00176429740712 ,27518036 , , 7057.18962848 , 44129.0959716 , 51186.2856001 
0 ,8000 ,128000 ,20 ,128 ,20 ,0.000436680108309 ,3.49344086647 ,68.6489758492 ,520 ,0.000536320123821 ,66560020 , , 2145.28049529 , 54585.0135386 , 56730.2940339 
1 ,8000 ,128000 ,20 ,128 ,20 ,0.000429543375969 ,3.43634700775 ,71.8163859844 ,495 ,0.000561065515503 ,63400644 , , 2244.26206201 , 53692.9219961 , 55937.1840581 
2 ,8000 ,128000 ,20 ,128 ,20 ,0.000180783510208 ,1.44626808167 ,172.221588135 ,367 ,0.0013454811573 ,47011732 , , 5381.92462921 , 22597.938776 , 27979.8634052 
0 ,8000 ,128000 ,20 ,128 ,30 ,0.000460674136877 ,3.68539309502 ,78.9269151688 ,520 ,0.000616616524756 ,66560020 , , 2466.46609902 , 57584.2671096 , 60050.7332087 
1 ,8000 ,128000 ,20 ,128 ,30 ,0.000455011606216 ,3.64009284973 ,82.0708889961 ,513 ,0.000641178820282 ,65762500 , , 2564.71528113 , 56876.4507771 , 59441.1660582 
2 ,8000 ,128000 ,20 ,128 ,30 ,0.000165743023157 ,1.32594418526 ,187.702008963 ,377 ,0.00146642194502 ,48290192 , , 5865.68778008 , 20717.8778946 , 26583.5656747 
0 ,8000 ,128000 ,20 ,128 ,40 ,0.000454373121262 ,3.63498497009 ,86.764220953 ,520 ,0.000677845476195 ,66560020 , , 2711.38190478 , 56796.6401577 , 59508.0220625 
1 ,8000 ,128000 ,20 ,128 ,40 ,0.000453867375851 ,3.63093900681 ,91.7036948204 ,518 ,0.000716435115784 ,66323296 , , 2865.74046314 , 56733.4219813 , 59599.1624445 
2 ,8000 ,128000 ,20 ,128 ,40 ,0.00017137786746 ,1.37102293968 ,198.021602154 ,382 ,0.00154704376683 ,49008904 , , 6188.17506731 , 21422.2334325 , 27610.4084998 
0 ,8000 ,128000 ,20 ,160 ,20 ,0.000477890759706 ,3.82312607765 ,85.9594991207 ,648 ,0.000671558586881 ,82944020 , , 2686.23434752 , 59736.3449633 , 62422.5793108 
1 ,8000 ,128000 ,20 ,160 ,20 ,0.000488564878702 ,3.90851902962 ,87.7552809715 ,571 ,0.00068558813259 ,73101184 , , 2742.35253036 , 61070.6098378 , 63812.9623681 
2 ,8000 ,128000 ,20 ,160 ,20 ,0.000248769879341 ,1.99015903473 ,225.499820948 ,432 ,0.00176171735115 ,55335664 , , 7046.86940461 , 31096.2349176 , 38143.1043223 
0 ,8000 ,128000 ,20 ,160 ,30 ,0.000521400511265 ,4.17120409012 ,100.970277071 ,648 ,0.000788830289617 ,82944020 , , 3155.32115847 , 65175.0639081 , 68330.3850666 
1 ,8000 ,128000 ,20 ,160 ,30 ,0.000527037501335 ,4.21630001068 ,104.003114939 ,620 ,0.000812524335459 ,79383164 , , 3250.09734184 , 65879.6876669 , 69129.7850087 
2 ,8000 ,128000 ,20 ,160 ,30 ,0.000216228753328 ,1.72983002663 ,250.186248064 ,446 ,0.001954580063 ,57089172 , , 7818.320252 , 27028.594166 , 34846.914418 
0 ,8000 ,128000 ,20 ,160 ,40 ,0.00053323802352 ,4.26590418816 ,112.167871952 ,648 ,0.000876311499625 ,82944020 , , 3505.2459985 , 66654.7529399 , 70159.9989384 
1 ,8000 ,128000 ,20 ,160 ,40 ,0.000534191250801 ,4.27353000641 ,116.056523085 ,636 ,0.000906691586599 ,81513988 , , 3626.7663464 , 66773.9063501 , 70400.6726965 
2 ,8000 ,128000 ,20 ,160 ,40 ,0.000184184879065 ,1.47347903252 ,265.442883015 ,453 ,0.00207377252355 ,58063396 , , 8295.09009421 , 23023.1098831 , 31318.1999773 
0 ,8000 ,128000 ,40 ,128 ,20 ,0.000525223851204 ,4.20179080963 ,70.6667010784 ,520 ,0.000552083602175 ,66560020 , , 2208.3344087 , 65652.9814005 , 67861.3158092 
1 ,8000 ,128000 ,40 ,128 ,20 ,0.00052073776722 ,4.16590213776 ,75.146171093 ,515 ,0.000587079461664 ,66002968 , , 2348.31784666 , 65092.2209024 , 67440.5387491 
2 ,8000 ,128000 ,40 ,128 ,20 ,0.000185846865177 ,1.48677492142 ,176.225718975 ,370 ,0.00137676342949 ,47425832 , , 5507.05371797 , 23230.8581471 , 28737.9118651 
0 ,8000 ,128000 ,40 ,128 ,30 ,0.000527238249779 ,4.21790599823 ,80.7349750996 ,520 ,0.000630741992965 ,66560020 , , 2522.96797186 , 65904.7812223 , 68427.7491942 
1 ,8000 ,128000 ,40 ,128 ,30 ,0.000535515367985 ,4.28412294388 ,84.011605978 ,519 ,0.000656340671703 ,66498204 , , 2625.36268681 , 66939.4209981 , 69564.7836849 
2 ,8000 ,128000 ,40 ,128 ,30 ,0.000191925883293 ,1.53540706635 ,189.811932087 ,378 ,0.00148290571943 ,48425008 , , 5931.62287772 , 23990.7354116 , 29922.3582894 
0 ,8000 ,128000 ,40 ,128 ,40 ,0.000526957392693 ,4.21565914154 ,88.7011160851 ,520 ,0.000692977469414 ,66560020 , , 2771.90987766 , 65869.6740866 , 68641.5839642 
1 ,8000 ,128000 ,40 ,128 ,40 ,0.000522331744432 ,4.17865395546 ,92.9488761425 ,519 ,0.000726163094863 ,66551600 , , 2904.65237945 , 65291.4680541 , 68196.1204335 
2 ,8000 ,128000 ,40 ,128 ,40 ,0.000197387635708 ,1.57910108566 ,198.860646009 ,383 ,0.00155359879695 ,49071436 , , 6214.3951878 , 24673.4544635 , 30887.8496513 
0 ,8000 ,128000 ,40 ,160 ,20 ,0.000689024507999 ,5.512196064 ,92.6513648033 ,648 ,0.000723838787526 ,82944020 , , 2895.3551501 , 86128.0634999 , 89023.41865 
1 ,8000 ,128000 ,40 ,160 ,20 ,0.000611002355814 ,4.88801884651 ,95.496614933 ,626 ,0.000746067304164 ,80139400 , , 2984.26921666 , 76375.2944767 , 79359.5636934 
2 ,8000 ,128000 ,40 ,160 ,20 ,0.000228947639465 ,1.83158111572 ,237.335576773 ,438 ,0.00185418419354 ,56142632 , , 7416.73677415 , 28618.4549332 , 36035.1917073 
0 ,8000 ,128000 ,40 ,160 ,30 ,0.000615897476673 ,4.92717981339 ,102.951936007 ,648 ,0.000804312000051 ,82944020 , , 3217.2480002 , 76987.1845841 , 80204.4325843 
1 ,8000 ,128000 ,40 ,160 ,30 ,0.000632197618484 ,5.05758094788 ,107.773678064 ,643 ,0.000841981859878 ,82409908 , , 3367.92743951 , 79024.7023106 , 82392.6297501 
2 ,8000 ,128000 ,40 ,160 ,30 ,0.000214294880629 ,1.71435904503 ,256.692193031 ,448 ,0.00200540775806 ,57441652 , , 8021.63103223 , 26786.8600786 , 34808.4911108 
0 ,8000 ,128000 ,40 ,160 ,40 ,0.000616268515587 ,4.93014812469 ,113.296500206 ,648 ,0.000885128907859 ,82944020 , , 3540.51563144 , 77033.5644484 , 80574.0800798 
1 ,8000 ,128000 ,40 ,160 ,40 ,0.000624236255884 ,4.99389004707 ,118.34323597 ,646 ,0.000924556531012 ,82807924 , , 3698.22612405 , 78029.5319855 , 81727.7581096 
2 ,8000 ,128000 ,40 ,160 ,40 ,0.000200400739908 ,1.60320591927 ,269.460469961 ,454 ,0.00210515992157 ,58224888 , , 8420.63968629 , 25050.0924885 , 33470.7321748 
0 ,16000 ,16000 ,20 ,128 ,20 ,0.00023081125319 ,3.69298005104 ,4.13240098953 ,520 ,0.000258275061846 ,8320020 , , 1033.10024738 , 230811.25319 , 231844.353437 
1 ,16000 ,16000 ,20 ,128 ,20 ,0.000236508622766 ,3.78413796425 ,4.43904018402 ,414 ,0.000277440011501 ,6633540 , , 1109.76004601 , 236508.622766 , 237618.382812 
2 ,16000 ,16000 ,20 ,128 ,20 ,0.000155361428857 ,2.48578286171 ,11.8247539997 ,306 ,0.000739047124982 ,4902732 , , 2956.18849993 , 155361.428857 , 158317.617357 
0 ,16000 ,16000 ,20 ,128 ,30 ,0.00026937431097 ,4.30998897552 ,5.51164197922 ,520 ,0.000344477623701 ,8320020 , , 1377.9104948 , 269374.31097 , 270752.221465 
1 ,16000 ,16000 ,20 ,128 ,30 ,0.000269521564245 ,4.31234502792 ,5.45913004875 ,458 ,0.000341195628047 ,7336712 , , 1364.78251219 , 269521.564245 , 270886.346757 
2 ,16000 ,16000 ,20 ,128 ,30 ,0.000150474876165 ,2.40759801865 ,13.1260361671 ,311 ,0.000820377260447 ,4987100 , , 3281.50904179 , 150474.876165 , 153756.385207 
0 ,16000 ,16000 ,20 ,128 ,40 ,0.000280487433076 ,4.48779892921 ,6.55034708977 ,520 ,0.00040939669311 ,8320020 , , 1637.58677244 , 280487.433076 , 282125.019848 
1 ,16000 ,16000 ,20 ,128 ,40 ,0.000285966187716 ,4.57545900345 ,6.71239995956 ,491 ,0.000419524997473 ,7870384 , , 1678.09998989 , 285966.187716 , 287644.287705 
2 ,16000 ,16000 ,20 ,128 ,40 ,0.000137366816401 ,2.19786906242 ,14.317677021 ,316 ,0.000894854813814 ,5057392 , , 3579.41925526 , 137366.816401 , 140946.235657 
0 ,16000 ,16000 ,20 ,160 ,20 ,0.000260041072965 ,4.16065716743 ,5.46675109863 ,648 ,0.000341671943665 ,10368020 , , 1366.68777466 , 260041.072965 , 261407.760739 
1 ,16000 ,16000 ,20 ,160 ,20 ,0.000264918446541 ,4.23869514465 ,5.54540419579 ,428 ,0.000346587762237 ,6849012 , , 1386.35104895 , 264918.446541 , 266304.79759 
2 ,16000 ,16000 ,20 ,160 ,20 ,0.000186062008142 ,2.97699213028 ,14.9463570118 ,346 ,0.000934147313237 ,5538368 , , 3736.58925295 , 186062.008142 , 189798.597395 
0 ,16000 ,16000 ,20 ,160 ,30 ,0.000275481313467 ,4.40770101547 ,6.12121200562 ,648 ,0.000382575750351 ,10368020 , , 1530.3030014 , 275481.313467 , 277011.616468 
1 ,16000 ,16000 ,20 ,160 ,30 ,0.000290886193514 ,4.65417909622 ,6.91658401489 ,498 ,0.000432286500931 ,7972688 , , 1729.14600372 , 290886.193514 , 292615.339518 
2 ,16000 ,16000 ,20 ,160 ,30 ,0.00019788557291 ,3.16616916656 ,15.8194308281 ,350 ,0.000988714426756 ,5611476 , , 3954.85770702 , 197885.57291 , 201840.430617 
0 ,16000 ,16000 ,20 ,160 ,40 ,0.000304423868656 ,4.8707818985 ,8.09172296524 ,648 ,0.000505732685328 ,10368020 , , 2022.93074131 , 304423.868656 , 306446.799397 
1 ,16000 ,16000 ,20 ,160 ,40 ,0.000306337371469 ,4.9013979435 ,8.15296196938 ,558 ,0.000509560123086 ,8942932 , , 2038.24049234 , 306337.371469 , 308375.611961 
2 ,16000 ,16000 ,20 ,160 ,40 ,0.00016433981061 ,2.62943696976 ,18.0023579597 ,356 ,0.00112514737248 ,5701476 , , 4500.58948994 , 164339.81061 , 168840.4001 
0 ,16000 ,16000 ,40 ,128 ,20 ,0.000303318500519 ,4.8530960083 ,5.2646150589 ,520 ,0.000329038441181 ,8320020 , , 1316.15376472 , 303318.500519 , 304634.654284 
1 ,16000 ,16000 ,40 ,128 ,20 ,0.000356296181679 ,5.70073890686 ,5.40281391144 ,473 ,0.000337675869465 ,7578872 , , 1350.70347786 , 356296.181679 , 357646.885157 
2 ,16000 ,16000 ,40 ,128 ,20 ,0.000176601886749 ,2.82563018799 ,13.513422966 ,309 ,0.000844588935375 ,4953276 , , 3378.3557415 , 176601.886749 , 179980.242491 
0 ,16000 ,16000 ,40 ,128 ,30 ,0.000323757499456 ,5.1801199913 ,5.81942486763 ,520 ,0.000363714054227 ,8320020 , , 1454.85621691 , 323757.499456 , 325212.355673 
1 ,16000 ,16000 ,40 ,128 ,30 ,0.000323387250304 ,5.17419600487 ,6.1672129631 ,501 ,0.000385450810194 ,8031104 , , 1541.80324078 , 323387.250304 , 324929.053545 
2 ,16000 ,16000 ,40 ,128 ,30 ,0.000152212992311 ,2.43540787697 ,13.7163059711 ,313 ,0.000857269123197 ,5016040 , , 3429.07649279 , 152212.992311 , 155642.068803 
0 ,16000 ,16000 ,40 ,128 ,40 ,0.000320493876934 ,5.12790203094 ,6.78506588936 ,520 ,0.000424066618085 ,8320020 , , 1696.26647234 , 320493.876934 , 322190.143406 
1 ,16000 ,16000 ,40 ,128 ,40 ,0.000328622937202 ,5.25796699524 ,6.83213114738 ,512 ,0.000427008196712 ,8198728 , , 1708.03278685 , 328622.937202 , 330330.969989 
2 ,16000 ,16000 ,40 ,128 ,40 ,0.000132124245167 ,2.11398792267 ,14.4237859249 ,316 ,0.000901486620307 ,5063600 , , 3605.94648123 , 132124.245167 , 135730.191648 
0 ,16000 ,16000 ,40 ,160 ,20 ,0.000320542693138 ,5.12868309021 ,6.25017881393 ,648 ,0.000390636175871 ,10368020 , , 1562.54470348 , 320542.693138 , 322105.237842 
1 ,16000 ,16000 ,40 ,160 ,20 ,0.000322673365474 ,5.16277384758 ,6.34414291382 ,502 ,0.000396508932114 ,8033932 , , 1586.03572845 , 322673.365474 , 324259.401202 
2 ,16000 ,16000 ,40 ,160 ,20 ,0.000219288378954 ,3.50861406326 ,15.8854768276 ,349 ,0.000992842301726 ,5599680 , , 3971.36920691 , 219288.378954 , 223259.748161 
0 ,16000 ,16000 ,40 ,160 ,30 ,0.000322749495506 ,5.1639919281 ,6.44365286827 ,648 ,0.000402728304267 ,10368020 , , 1610.91321707 , 322749.495506 , 324360.408723 
1 ,16000 ,16000 ,40 ,160 ,30 ,0.000327620431781 ,5.24192690849 ,6.70605707169 ,516 ,0.00041912856698 ,8267540 , , 1676.51426792 , 327620.431781 , 329296.946049 
2 ,16000 ,16000 ,40 ,160 ,30 ,0.000238841623068 ,3.82146596909 ,16.1577880383 ,351 ,0.00100986175239 ,5631252 , , 4039.44700956 , 238841.623068 , 242881.070077 
0 ,16000 ,16000 ,40 ,160 ,40 ,0.000354358181357 ,5.66973090172 ,8.42840886116 ,648 ,0.000526775553823 ,10368020 , , 2107.10221529 , 354358.181357 , 356465.283573 
1 ,16000 ,16000 ,40 ,160 ,40 ,0.000353981435299 ,5.66370296478 ,8.66826891899 ,606 ,0.000541766807437 ,9706308 , , 2167.06722975 , 353981.435299 , 356148.502529 
2 ,16000 ,16000 ,40 ,160 ,40 ,0.000181186690927 ,2.89898705482 ,18.4355299473 ,357 ,0.00115222062171 ,5713096 , , 4608.88248682 , 181186.690927 , 185795.573413 
0 ,16000 ,32000 ,20 ,128 ,20 ,0.00032993337512 ,5.27893400192 ,11.881374836 ,520 ,0.000371292963624 ,16640020 , , 1485.1718545 , 164966.68756 , 166451.859415 
1 ,16000 ,32000 ,20 ,128 ,20 ,0.000337174117565 ,5.39478588104 ,12.159954071 ,452 ,0.00037999856472 ,14473332 , , 1519.99425888 , 168587.058783 , 170107.053041 
2 ,16000 ,32000 ,20 ,128 ,20 ,0.00018125975132 ,2.90015602112 ,30.0929341316 ,331 ,0.000940404191613 ,10597660 , , 3761.61676645 , 90629.8756599 , 94391.4924264 
0 ,16000 ,32000 ,20 ,128 ,30 ,0.000351166129112 ,5.6186580658 ,15.1558570862 ,520 ,0.000473620533943 ,16640020 , , 1894.48213577 , 175583.064556 , 177477.546692 
1 ,16000 ,32000 ,20 ,128 ,30 ,0.000355156615376 ,5.68250584602 ,14.5561640263 ,493 ,0.000454880125821 ,15795164 , , 1819.52050328 , 177578.307688 , 179397.828192 
2 ,16000 ,32000 ,20 ,128 ,30 ,0.000152533873916 ,2.44054198265 ,33.1512458324 ,339 ,0.00103597643226 ,10876180 , , 4143.90572906 , 76266.9369578 , 80410.8426869 
0 ,16000 ,32000 ,20 ,128 ,40 ,0.00036030061543 ,5.76480984688 ,15.6576061249 ,520 ,0.000489300191402 ,16640020 , , 1957.20076561 , 180150.307715 , 182107.508481 
1 ,16000 ,32000 ,20 ,128 ,40 ,0.000360242679715 ,5.76388287544 ,16.3782408237 ,507 ,0.000511820025742 ,16224364 , , 2047.28010297 , 180121.339858 , 182168.619961 
2 ,16000 ,32000 ,20 ,128 ,40 ,0.000141776561737 ,2.26842498779 ,35.4694459438 ,344 ,0.00110842018574 ,11030352 , , 4433.68074298 , 70888.2808685 , 75321.9616115 
0 ,16000 ,32000 ,20 ,160 ,20 ,0.000341963067651 ,5.47140908241 ,13.4847509861 ,648 ,0.000421398468316 ,20736020 , , 1685.59387326 , 170981.533825 , 172667.127699 
1 ,16000 ,32000 ,20 ,160 ,20 ,0.000348775818944 ,5.5804131031 ,14.07716012 ,482 ,0.00043991125375 ,15433880 , , 1759.645015 , 174387.909472 , 176147.554487 
2 ,16000 ,32000 ,20 ,160 ,20 ,0.000215256929398 ,3.44411087036 ,37.5558319092 ,380 ,0.00117361974716 ,12160184 , , 4694.47898865 , 107628.464699 , 112322.943687 
0 ,16000 ,32000 ,20 ,160 ,30 ,0.000376587942243 ,6.02540707588 ,16.4787640572 ,648 ,0.000514961376786 ,20736020 , , 2059.84550714 , 188293.971121 , 190353.816628 
1 ,16000 ,32000 ,20 ,160 ,30 ,0.000383371010423 ,6.13393616676 ,17.3040699959 ,558 ,0.000540752187371 ,17860432 , , 2163.00874949 , 191685.505211 , 193848.513961 
2 ,16000 ,32000 ,20 ,160 ,30 ,0.000205209121108 ,3.28334593773 ,41.8271450996 ,390 ,0.00130709828436 ,12491992 , , 5228.39313745 , 102604.560554 , 107832.953691 
0 ,16000 ,32000 ,20 ,160 ,40 ,0.000428797319531 ,6.8607571125 ,18.6064960957 ,648 ,0.000581453002989 ,20736020 , , 2325.81201196 , 214398.659766 , 216724.471778 
1 ,16000 ,32000 ,20 ,160 ,40 ,0.000401867628098 ,6.42988204956 ,18.9327759743 ,584 ,0.000591649249196 ,18698540 , , 2366.59699678 , 200933.814049 , 203300.411046 
2 ,16000 ,32000 ,20 ,160 ,40 ,0.000183038502932 ,2.92861604691 ,45.1072189808 ,395 ,0.00140960059315 ,12658328 , , 5638.4023726 , 91519.2514658 , 97157.6538384 
0 ,16000 ,32000 ,40 ,128 ,20 ,0.00039540117979 ,6.32641887665 ,12.3768789768 ,520 ,0.000386777468026 ,16640020 , , 1547.1098721 , 197700.589895 , 199247.699767 
1 ,16000 ,32000 ,40 ,128 ,20 ,0.000405161425471 ,6.48258280754 ,13.0616221428 ,498 ,0.000408175691962 ,15960868 , , 1632.70276785 , 202580.712736 , 204213.415504 
2 ,16000 ,32000 ,40 ,128 ,20 ,0.000176693186164 ,2.82709097862 ,31.2470531464 ,334 ,0.000976470410824 ,10707308 , , 3905.8816433 , 88346.593082 , 92252.4747252 
0 ,16000 ,32000 ,40 ,128 ,30 ,0.000411828562617 ,6.58925700188 ,14.2097439766 ,520 ,0.000444054499269 ,16640020 , , 1776.21799707 , 205914.281309 , 207690.499306 
1 ,16000 ,32000 ,40 ,128 ,30 ,0.000414156869054 ,6.62650990486 ,14.8439958096 ,515 ,0.000463874869049 ,16487432 , , 1855.49947619 , 207078.434527 , 208933.934003 
2 ,16000 ,32000 ,40 ,128 ,30 ,0.000154570505023 ,2.47312808037 ,33.6705060005 ,341 ,0.00105220331252 ,10914280 , , 4208.81325006 , 77285.2525115 , 81494.0657616 
0 ,16000 ,32000 ,40 ,128 ,40 ,0.000409660875797 ,6.55457401276 ,15.8314058781 ,520 ,0.00049473143369 ,16640020 , , 1978.92573476 , 204830.437899 , 206809.363633 
1 ,16000 ,32000 ,40 ,128 ,40 ,0.000412971124053 ,6.60753798485 ,16.6633238792 ,517 ,0.000520728871226 ,16575052 , , 2082.91548491 , 206485.562027 , 208568.477511 
2 ,16000 ,32000 ,40 ,128 ,40 ,0.000150827944279 ,2.41324710846 ,36.0464007854 ,345 ,0.00112645002455 ,11042792 , , 4505.80009818 , 75413.9721394 , 79919.7722375 
0 ,16000 ,32000 ,40 ,160 ,20 ,0.000432783558965 ,6.92453694344 ,15.5071370602 ,648 ,0.00048459803313 ,20736020 , , 1938.39213252 , 216391.779482 , 218330.171615 
1 ,16000 ,32000 ,40 ,160 ,20 ,0.000441821247339 ,7.06913995743 ,16.1686091423 ,566 ,0.000505269035697 ,18136764 , , 2021.07614279 , 220910.62367 , 222931.699812 
2 ,16000 ,32000 ,40 ,160 ,20 ,0.000234006509185 ,3.74410414696 ,40.244562149 ,386 ,0.00125764256716 ,12358496 , , 5030.57026863 , 117003.254592 , 122033.824861 
0 ,16000 ,32000 ,40 ,160 ,30 ,0.00046012930572 ,7.36206889153 ,17.7456219196 ,648 ,0.000554550684988 ,20736020 , , 2218.20273995 , 230064.65286 , 232282.8556 
1 ,16000 ,32000 ,40 ,160 ,30 ,0.000470537498593 ,7.52859997749 ,18.5344059467 ,616 ,0.000579200185835 ,19712416 , , 2316.80074334 , 235268.749297 , 237585.55004 
2 ,16000 ,32000 ,40 ,160 ,30 ,0.000204038187861 ,3.26461100578 ,43.6702330112 ,392 ,0.0013646947816 ,12568640 , , 5458.77912641 , 102019.093931 , 107477.873057 
0 ,16000 ,32000 ,40 ,160 ,40 ,0.000468727052212 ,7.49963283539 ,19.8470468521 ,648 ,0.000620220214128 ,20736020 , , 2480.88085651 , 234363.526106 , 236844.406962 
1 ,16000 ,32000 ,40 ,160 ,40 ,0.000470351368189 ,7.52562189102 ,19.6613190174 ,625 ,0.000614416219294 ,20014392 , , 2457.66487718 , 235175.684094 , 237633.348972 
2 ,16000 ,32000 ,40 ,160 ,40 ,0.000187156736851 ,2.99450778961 ,45.2710318565 ,395 ,0.00141471974552 ,12660512 , , 5658.87898207 , 93578.3684254 , 99237.2474074 
0 ,16000 ,64000 ,20 ,128 ,20 ,0.000393630310893 ,6.29808497429 ,28.8485920429 ,520 ,0.000450759250671 ,33280020 , , 1803.03700268 , 98407.5777233 , 100210.614726 
1 ,16000 ,64000 ,20 ,128 ,20 ,0.000398108124733 ,6.36972999573 ,31.3593649864 ,478 ,0.000489990077913 ,30611356 , , 1959.96031165 , 99527.0311832 , 101486.991495 
2 ,16000 ,64000 ,20 ,128 ,20 ,0.000180052369833 ,2.88083791733 ,72.8377931118 ,351 ,0.00113809051737 ,22526216 , , 4552.36206949 , 45013.0924582 , 49565.4545277 
0 ,16000 ,64000 ,20 ,128 ,30 ,0.000412140935659 ,6.59425497055 ,33.7090167999 ,520 ,0.000526703387499 ,33280020 , , 2106.81355 , 103035.233915 , 105142.047465 
1 ,16000 ,64000 ,20 ,128 ,30 ,0.000416760802269 ,6.6681728363 ,35.5618181229 ,507 ,0.00055565340817 ,32496612 , , 2222.61363268 , 104190.200567 , 106412.8142 
2 ,16000 ,64000 ,20 ,128 ,30 ,0.000160514503717 ,2.56823205948 ,80.6017301083 ,361 ,0.00125940203294 ,23151568 , , 5037.60813177 , 40128.6259294 , 45166.2340611 
0 ,16000 ,64000 ,20 ,128 ,40 ,0.000408536881208 ,6.53659009933 ,38.2812819481 ,520 ,0.000598145030439 ,33280020 , , 2392.58012176 , 102134.220302 , 104526.800424 
1 ,16000 ,64000 ,20 ,128 ,40 ,0.000422073632479 ,6.75317811966 ,39.4772558212 ,514 ,0.000616832122207 ,32951552 , , 2467.32848883 , 105518.40812 , 107985.736609 
2 ,16000 ,64000 ,20 ,128 ,40 ,0.000156652316451 ,2.50643706322 ,85.8047480583 ,366 ,0.00134069918841 ,23464068 , , 5362.79675364 , 39163.0791128 , 44525.8758664 
0 ,16000 ,64000 ,20 ,160 ,20 ,0.000435083389282 ,6.96133422852 ,34.0259850025 ,648 ,0.000531656015664 ,41472020 , , 2126.62406266 , 108770.847321 , 110897.471383 
1 ,16000 ,64000 ,20 ,160 ,20 ,0.000431134864688 ,6.89815783501 ,35.5568060875 ,531 ,0.000555575095117 ,34031764 , , 2222.30038047 , 107783.716172 , 110006.016552 
2 ,16000 ,64000 ,20 ,160 ,20 ,0.000228853568435 ,3.66165709496 ,94.5591771603 ,408 ,0.00147748714313 ,26116464 , , 5909.94857252 , 57213.3921087 , 63123.3406812 
0 ,16000 ,64000 ,20 ,160 ,30 ,0.000469550192356 ,7.5128030777 ,40.3223891258 ,648 ,0.000630037330091 ,41472020 , , 2520.14932036 , 117387.548089 , 119907.697409 
1 ,16000 ,64000 ,20 ,160 ,30 ,0.000472881257534 ,7.56610012054 ,42.815584898 ,598 ,0.000668993514031 ,38297940 , , 2675.97405612 , 118220.314384 , 120896.28844 
2 ,16000 ,64000 ,20 ,160 ,30 ,0.000205244138837 ,3.28390622139 ,105.079897165 ,421 ,0.00164187339321 ,26946080 , , 6567.49357283 , 51311.0347092 , 57878.528282 
0 ,16000 ,64000 ,20 ,160 ,40 ,0.00047989231348 ,7.67827701569 ,46.5807600021 ,648 ,0.000727824375033 ,41472020 , , 2911.29750013 , 119973.07837 , 122884.37587 
1 ,16000 ,64000 ,20 ,160 ,40 ,0.00049496537447 ,7.91944599152 ,49.9296350479 ,625 ,0.000780150547624 ,40003944 , , 3120.60219049 , 123741.343617 , 126861.945808 
2 ,16000 ,64000 ,20 ,160 ,40 ,0.000184166252613 ,2.94666004181 ,112.182883978 ,428 ,0.00175285756215 ,27434852 , , 7011.43024862 , 46041.5631533 , 53052.9934019 
0 ,16000 ,64000 ,40 ,128 ,20 ,0.000469692438841 ,7.51507902145 ,29.948843956 ,520 ,0.000467950686812 ,33280020 , , 1871.80274725 , 117423.10971 , 119294.912457 
1 ,16000 ,64000 ,40 ,128 ,20 ,0.000482111245394 ,7.7137799263 ,32.0720498562 ,511 ,0.000501125779003 ,32711720 , , 2004.50311601 , 120527.811348 , 122532.314464 
2 ,16000 ,64000 ,40 ,128 ,20 ,0.000181034445763 ,2.8965511322 ,75.9420330524 ,355 ,0.00118659426644 ,22755608 , , 4746.37706578 , 45258.6114407 , 50004.9885064 
0 ,16000 ,64000 ,40 ,128 ,30 ,0.000500777870417 ,8.01244592667 ,35.4284739494 ,520 ,0.00055356990546 ,33280020 , , 2214.27962184 , 125194.467604 , 127408.747226 
1 ,16000 ,64000 ,40 ,128 ,30 ,0.00048951806128 ,7.83228898048 ,36.1870090961 ,518 ,0.000565422017127 ,33187472 , , 2261.68806851 , 122379.51532 , 124641.203389 
2 ,16000 ,64000 ,40 ,128 ,30 ,0.000172606870532 ,2.76170992851 ,81.563092947 ,363 ,0.0012744233273 ,23243948 , , 5097.69330919 , 43151.717633 , 48249.4109422 
0 ,16000 ,64000 ,40 ,128 ,40 ,0.000479587748647 ,7.67340397835 ,37.8876490593 ,520 ,0.000591994516551 ,33280020 , , 2367.97806621 , 119896.937162 , 122264.915228 
1 ,16000 ,64000 ,40 ,128 ,40 ,0.000488561376929 ,7.81698203087 ,39.663007021 ,519 ,0.000619734484702 ,33263104 , , 2478.93793881 , 122140.344232 , 124619.282171 
2 ,16000 ,64000 ,40 ,128 ,40 ,0.000175319373608 ,2.80510997772 ,85.7465019226 ,367 ,0.00133978909254 ,23502928 , , 5359.15637016 , 43829.8434019 , 49188.9997721 
0 ,16000 ,64000 ,40 ,160 ,20 ,0.00054074037075 ,8.65184593201 ,37.8716270924 ,648 ,0.000591744173318 ,41472020 , , 2366.97669327 , 135185.092688 , 137552.069381 
1 ,16000 ,64000 ,40 ,160 ,20 ,0.000558117061853 ,8.92987298965 ,39.4893538952 ,606 ,0.000617021154612 ,38815592 , , 2468.08461845 , 139529.265463 , 141997.350082 
2 ,16000 ,64000 ,40 ,160 ,20 ,0.00022819468379 ,3.65111494064 ,99.8856878281 ,414 ,0.00156071387231 ,26531008 , , 6242.85548925 , 57048.6709476 , 63291.5264368 
0 ,16000 ,64000 ,40 ,160 ,30 ,0.000569604799151 ,9.11367678642 ,42.9602780342 ,648 ,0.000671254344285 ,41472020 , , 2685.01737714 , 142401.199788 , 145086.217165 
1 ,16000 ,64000 ,40 ,160 ,30 ,0.000574457004666 ,9.19131207466 ,45.1987261772 ,636 ,0.000706230096519 ,40755552 , , 2824.92038608 , 143614.251167 , 146439.171553 
2 ,16000 ,64000 ,40 ,160 ,30 ,0.000196880444884 ,3.15008711815 ,109.327079058 ,424 ,0.00170823561028 ,27141184 , , 6832.94244111 , 49220.1112211 , 56053.0536622 
0 ,16000 ,64000 ,40 ,160 ,40 ,0.000569128930569 ,9.1060628891 ,47.9356579781 ,648 ,0.000748994655907 ,41472020 , , 2995.97862363 , 142282.232642 , 145278.211266 
1 ,16000 ,64000 ,40 ,160 ,40 ,0.0005740955621 ,9.18552899361 ,49.6539731026 ,644 ,0.000775843329728 ,41260944 , , 3103.37331891 , 143523.890525 , 146627.263844 
2 ,16000 ,64000 ,40 ,160 ,40 ,0.000186654746532 ,2.98647594452 ,113.815576077 ,429 ,0.0017783683762 ,27519224 , , 7113.47350478 , 46663.6866331 , 53777.1601379 
0 ,16000 ,128000 ,20 ,128 ,20 ,0.000455556377769 ,7.2889020443 ,70.8859250546 ,520 ,0.000553796289489 ,66560020 , , 2215.18515795 , 56944.5472211 , 59159.732379 
1 ,16000 ,128000 ,20 ,128 ,20 ,0.00046385012567 ,7.42160201073 ,73.1320631504 ,495 ,0.000571344243363 ,63415440 , , 2285.37697345 , 57981.2657088 , 60266.6426823 
2 ,16000 ,128000 ,20 ,128 ,20 ,0.000193538188934 ,3.09661102295 ,173.500567913 ,367 ,0.00135547318682 ,47005144 , , 5421.89274728 , 24192.2736168 , 29614.1663641 
0 ,16000 ,128000 ,20 ,128 ,30 ,0.000470768257976 ,7.53229212761 ,80.8824710846 ,520 ,0.000631894305348 ,66560020 , , 2527.57722139 , 58846.0322469 , 61373.6094683 
1 ,16000 ,128000 ,20 ,128 ,30 ,0.000489819005132 ,7.83710408211 ,83.3505439758 ,513 ,0.000651176124811 ,65755436 , , 2604.70449924 , 61227.3756415 , 63832.0801407 
2 ,16000 ,128000 ,20 ,128 ,30 ,0.000177211433649 ,2.83538293839 ,188.603515863 ,377 ,0.00147346496768 ,48270224 , , 5893.85987073 , 22151.4292061 , 28045.2890769 
0 ,16000 ,128000 ,20 ,128 ,40 ,0.000470696881413 ,7.53115010262 ,88.5784640312 ,520 ,0.000692019250244 ,66560020 , , 2768.07700098 , 58837.1101767 , 61605.1871777 
1 ,16000 ,128000 ,20 ,128 ,40 ,0.000471501931548 ,7.54403090477 ,92.2162630558 ,518 ,0.000720439555123 ,66316380 , , 2881.75822049 , 58937.7414435 , 61819.499664 
2 ,16000 ,128000 ,20 ,128 ,40 ,0.000179459556937 ,2.871352911 ,200.319967985 ,382 ,0.00156499974988 ,49004516 , , 6259.99899954 , 22432.4446172 , 28692.4436167 
0 ,16000 ,128000 ,20 ,160 ,20 ,0.000503654494882 ,8.05847191811 ,86.2016370296 ,648 ,0.000673450289294 ,82944020 , , 2693.80115718 , 62956.8118602 , 65650.6130174 
1 ,16000 ,128000 ,20 ,160 ,20 ,0.000523208066821 ,8.37132906914 ,90.096683979 ,571 ,0.000703880343586 ,73133896 , , 2815.52137434 , 65401.0083526 , 68216.529727 
2 ,16000 ,128000 ,20 ,160 ,20 ,0.000256369635463 ,4.1019141674 ,228.692694902 ,432 ,0.00178666167893 ,55349272 , , 7146.6467157 , 32046.2044328 , 39192.8511485 
0 ,16000 ,128000 ,20 ,160 ,30 ,0.000546142816544 ,8.7382850647 ,103.565235138 ,648 ,0.000809103399515 ,82944020 , , 3236.41359806 , 68267.8520679 , 71504.265666 
1 ,16000 ,128000 ,20 ,160 ,30 ,0.000553291499615 ,8.85266399384 ,105.313342094 ,620 ,0.000822760485113 ,79398396 , , 3291.04194045 , 69161.4374518 , 72452.4793923 
2 ,16000 ,128000 ,20 ,160 ,30 ,0.000224480062723 ,3.59168100357 ,251.279105902 ,446 ,0.00196311801486 ,57096812 , , 7852.47205943 , 28060.0078404 , 35912.4798998 
0 ,16000 ,128000 ,20 ,160 ,40 ,0.000554200008512 ,8.86720013618 ,113.949408054 ,648 ,0.000890229750425 ,82944020 , , 3560.9190017 , 69275.0010639 , 72835.9200656 
1 ,16000 ,128000 ,20 ,160 ,40 ,0.000557170569897 ,8.91472911835 ,117.704669952 ,636 ,0.000919567734003 ,81502460 , , 3678.27093601 , 69646.3212371 , 73324.5921731 
2 ,16000 ,128000 ,20 ,160 ,40 ,0.000211331129074 ,3.38129806519 ,267.586854935 ,453 ,0.00209052230418 ,58082472 , , 8362.08921671 , 26416.3911343 , 34778.480351 
0 ,16000 ,128000 ,40 ,128 ,20 ,0.000546146571636 ,8.73834514618 ,72.9260530472 ,520 ,0.000569734789431 ,66560020 , , 2278.93915772 , 68268.3214545 , 70547.2606122 
1 ,16000 ,128000 ,40 ,128 ,20 ,0.000544965684414 ,8.71945095062 ,76.6274909973 ,515 ,0.000598652273417 ,65992852 , , 2394.60909367 , 68120.7105517 , 70515.3196454 
2 ,16000 ,128000 ,40 ,128 ,20 ,0.0001913433671 ,3.0614938736 ,178.450685978 ,370 ,0.0013941459842 ,47436564 , , 5576.58393681 , 23917.9208875 , 29494.5048243 
0 ,16000 ,128000 ,40 ,128 ,30 ,0.000535996749997 ,8.57594799995 ,80.8591430187 ,520 ,0.000631712054834 ,66560020 , , 2526.84821934 , 66999.5937496 , 69526.441969 
1 ,16000 ,128000 ,40 ,128 ,30 ,0.000551599875093 ,8.82559800148 ,84.5706319809 ,519 ,0.000660708062351 ,66497468 , , 2642.8322494 , 68949.9843866 , 71592.816636 
2 ,16000 ,128000 ,40 ,128 ,30 ,0.000204686746001 ,3.27498793602 ,191.906726122 ,378 ,0.00149927129783 ,48430848 , , 5997.08519131 , 25585.8432502 , 31582.9284415 
0 ,16000 ,128000 ,40 ,128 ,40 ,0.000550859242678 ,8.81374788284 ,90.3072161674 ,520 ,0.000705525126308 ,66560020 , , 2822.10050523 , 68857.4053347 , 71679.5058399 
1 ,16000 ,128000 ,40 ,128 ,40 ,0.000549471944571 ,8.79155111313 ,93.7578551769 ,519 ,0.00073248324357 ,66550772 , , 2929.93297428 , 68683.9930713 , 71613.9260456 
2 ,16000 ,128000 ,40 ,128 ,40 ,0.000206838950515 ,3.30942320824 ,200.58309412 ,383 ,0.00156705542281 ,49064092 , , 6268.22169125 , 25854.8688143 , 32123.0905056 
0 ,16000 ,128000 ,40 ,160 ,20 ,0.00063251131773 ,10.1201810837 ,94.9238948822 ,648 ,0.000741592928767 ,82944020 , , 2966.37171507 , 79063.9147162 , 82030.2864313 
1 ,16000 ,128000 ,40 ,160 ,20 ,0.000643706992269 ,10.2993118763 ,96.8980190754 ,625 ,0.000757015774027 ,80110856 , , 3028.06309611 , 80463.3740336 , 83491.4371297 
2 ,16000 ,128000 ,40 ,160 ,20 ,0.000251847624779 ,4.02956199646 ,239.232189178 ,438 ,0.00186900147796 ,56162452 , , 7476.00591183 , 31480.9530973 , 38956.9590092 
0 ,16000 ,128000 ,40 ,160 ,30 ,0.000650548249483 ,10.4087719917 ,106.639580011 ,648 ,0.000833121718839 ,82944020 , , 3332.48687536 , 81318.5311854 , 84651.0180607 
1 ,16000 ,128000 ,40 ,160 ,30 ,0.000651806995273 ,10.4289119244 ,109.820132017 ,643 ,0.000857969781384 ,82414968 , , 3431.87912554 , 81475.8744091 , 84907.7535346 
2 ,16000 ,128000 ,40 ,160 ,30 ,0.000237196862698 ,3.79514980316 ,259.671428204 ,448 ,0.00202868303284 ,57453568 , , 8114.73213136 , 29649.6078372 , 37764.3399686 
0 ,16000 ,128000 ,40 ,160 ,40 ,0.000652450799942 ,10.4392127991 ,117.650393009 ,648 ,0.000919143695384 ,82944020 , , 3676.57478154 , 81556.3499928 , 85232.9247743 
1 ,16000 ,128000 ,40 ,160 ,40 ,0.000649893864989 ,10.3983018398 ,119.630537033 ,646 ,0.000934613570571 ,82800168 , , 3738.45428228 , 81236.7331237 , 84975.1874059 
2 ,16000 ,128000 ,40 ,160 ,40 ,0.000221241429448 ,3.53986287117 ,270.527809143 ,455 ,0.00211349850893 ,58240424 , , 8453.99403572 , 27655.178681 , 36109.1727167 
0 ,32000 ,16000 ,20 ,128 ,20 ,0.000237229153514 ,7.59133291245 ,4.33796620369 ,520 ,0.000271122887731 ,8320020 , , 1084.49155092 , 237229.153514 , 238313.645065 
1 ,32000 ,16000 ,20 ,128 ,20 ,0.000249734938145 ,7.99151802063 ,4.61042094231 ,415 ,0.000288151308894 ,6651184 , , 1152.60523558 , 249734.938145 , 250887.54338 
2 ,32000 ,16000 ,20 ,128 ,20 ,0.000164781562984 ,5.27301001549 ,11.9256401062 ,306 ,0.000745352506638 ,4902328 , , 2981.41002655 , 164781.562984 , 167762.973011 
0 ,32000 ,16000 ,20 ,128 ,30 ,0.000268758624792 ,8.60027599335 ,5.43803405762 ,520 ,0.000339877128601 ,8320020 , , 1359.5085144 , 268758.624792 , 270118.133307 
1 ,32000 ,16000 ,20 ,128 ,30 ,0.000276792064309 ,8.85734605789 ,5.86744499207 ,466 ,0.000366715312004 ,7470236 , , 1466.86124802 , 276792.064309 , 278258.925557 
2 ,32000 ,16000 ,20 ,128 ,30 ,0.000154078155756 ,4.93050098419 ,13.2555661201 ,311 ,0.000828472882509 ,4989284 , , 3313.89153004 , 154078.155756 , 157392.047286 
0 ,32000 ,16000 ,20 ,128 ,40 ,0.000281297005713 ,9.00150418282 ,6.57568192482 ,520 ,0.000410980120301 ,8320020 , , 1643.9204812 , 281297.005713 , 282940.926194 
1 ,32000 ,16000 ,20 ,128 ,40 ,0.000284440249205 ,9.10208797455 ,6.72429990768 ,493 ,0.00042026874423 ,7888548 , , 1681.07497692 , 284440.249205 , 286121.324182 
2 ,32000 ,16000 ,20 ,128 ,40 ,0.000140220619738 ,4.48705983162 ,14.3207468987 ,316 ,0.000895046681166 ,5056840 , , 3580.18672466 , 140220.619738 , 143800.806463 
0 ,32000 ,16000 ,20 ,160 ,20 ,0.00026201262325 ,8.38440394402 ,5.53731608391 ,648 ,0.000346082255244 ,10368020 , , 1384.32902098 , 262012.62325 , 263396.952271 
1 ,32000 ,16000 ,20 ,160 ,20 ,0.000266581311822 ,8.5306019783 ,5.62379217148 ,429 ,0.000351487010717 ,6867968 , , 1405.94804287 , 266581.311822 , 267987.259865 
2 ,32000 ,16000 ,20 ,160 ,20 ,0.000188699156046 ,6.03837299347 ,15.0150160789 ,345 ,0.000938438504934 ,5535728 , , 3753.75401974 , 188699.156046 , 192452.910066 
0 ,32000 ,16000 ,20 ,160 ,30 ,0.000278448216617 ,8.91034293175 ,6.32330989838 ,648 ,0.000395206868649 ,10368020 , , 1580.82747459 , 278448.216617 , 280029.044092 
1 ,32000 ,16000 ,20 ,160 ,30 ,0.000279873281717 ,8.95594501495 ,6.38930892944 ,474 ,0.00039933180809 ,7593148 , , 1597.32723236 , 279873.281717 , 281470.60895 
2 ,32000 ,16000 ,20 ,160 ,30 ,0.000200269967318 ,6.40863895416 ,15.9183130264 ,350 ,0.000994894564152 ,5611716 , , 3979.57825661 , 200269.967318 , 204249.545574 
0 ,32000 ,16000 ,20 ,160 ,40 ,0.000306330151856 ,9.80256485939 ,8.10204386711 ,648 ,0.000506377741694 ,10368020 , , 2025.51096678 , 306330.151856 , 308355.662823 
1 ,32000 ,16000 ,20 ,160 ,40 ,0.000274930775166 ,8.7977848053 ,6.26368498802 ,455 ,0.000391480311751 ,7281280 , , 1565.92124701 , 274930.775166 , 276496.696413 
2 ,32000 ,16000 ,20 ,160 ,40 ,0.000165796838701 ,5.30549883842 ,18.051872015 ,356 ,0.00112824200094 ,5701884 , , 4512.96800375 , 165796.838701 , 170309.806705 
0 ,32000 ,16000 ,40 ,128 ,20 ,0.000311468593776 ,9.96699500084 ,5.34636998177 ,520 ,0.00033414812386 ,8320020 , , 1336.59249544 , 311468.593776 , 312805.186272 
1 ,32000 ,16000 ,40 ,128 ,20 ,0.000316761627793 ,10.1363720894 ,5.43315601349 ,473 ,0.000339572250843 ,7583716 , , 1358.28900337 , 316761.627793 , 318119.916797 
2 ,32000 ,16000 ,40 ,128 ,20 ,0.000176935568452 ,5.66193819046 ,12.7818529606 ,309 ,0.000798865810037 ,4948592 , , 3195.46324015 , 176935.568452 , 180131.031692 
0 ,32000 ,16000 ,40 ,128 ,30 ,0.000318556308746 ,10.1938018799 ,6.09258413315 ,520 ,0.000380786508322 ,8320020 , , 1523.14603329 , 318556.308746 , 320079.45478 
1 ,32000 ,16000 ,40 ,128 ,30 ,0.0003271747455 ,10.469591856 ,6.20743608475 ,501 ,0.000387964755297 ,8023864 , , 1551.85902119 , 327174.7455 , 328726.604521 
2 ,32000 ,16000 ,40 ,128 ,30 ,0.000146869778633 ,4.69983291626 ,13.756925106 ,313 ,0.000859807819128 ,5015880 , , 3439.23127651 , 146869.778633 , 150309.00991 
0 ,32000 ,16000 ,40 ,128 ,40 ,0.000323748059571 ,10.3599379063 ,6.85129904747 ,520 ,0.000428206190467 ,8320020 , , 1712.82476187 , 323748.059571 , 325460.884333 
1 ,32000 ,16000 ,40 ,128 ,40 ,0.000417686380446 ,13.3659641743 ,7.63262414932 ,512 ,0.000477039009333 ,8200384 , , 1908.15603733 , 417686.380446 , 419594.536483 
2 ,32000 ,16000 ,40 ,128 ,40 ,0.000153534404933 ,4.91310095787 ,15.7988491058 ,316 ,0.000987428069115 ,5063780 , , 3949.71227646 , 153534.404933 , 157484.11721 
0 ,32000 ,16000 ,40 ,160 ,20 ,0.000353064440191 ,11.2980620861 ,6.6079249382 ,648 ,0.000412995308638 ,10368020 , , 1651.98123455 , 353064.440191 , 354716.421425 
1 ,32000 ,16000 ,40 ,160 ,20 ,0.000351961754262 ,11.2627761364 ,6.9928278923 ,509 ,0.000437051743269 ,8152184 , , 1748.20697308 , 351961.754262 , 353709.961236 
2 ,32000 ,16000 ,40 ,160 ,20 ,0.00022526665777 ,7.20853304863 ,15.9481499195 ,349 ,0.000996759369969 ,5595052 , , 3987.03747988 , 225266.65777 , 229253.69525 
0 ,32000 ,16000 ,40 ,160 ,30 ,0.000339219003916 ,10.8550081253 ,7.45681810379 ,648 ,0.000466051131487 ,10368020 , , 1864.20452595 , 339219.003916 , 341083.208442 
1 ,32000 ,16000 ,40 ,160 ,30 ,0.000326049156487 ,10.4335730076 ,6.75696206093 ,516 ,0.000422310128808 ,8259320 , , 1689.24051523 , 326049.156487 , 327738.397002 
2 ,32000 ,16000 ,40 ,160 ,30 ,0.000237967282534 ,7.61495304108 ,16.3082029819 ,351 ,0.00101926268637 ,5629540 , , 4077.05074549 , 237967.282534 , 242044.333279 
0 ,32000 ,16000 ,40 ,160 ,40 ,0.00035105175525 ,11.233656168 ,8.57349896431 ,648 ,0.000535843685269 ,10368020 , , 2143.37474108 , 351051.75525 , 353195.129991 
1 ,32000 ,16000 ,40 ,160 ,40 ,0.000357755348086 ,11.4481711388 ,8.68968105316 ,605 ,0.000543105065823 ,9687072 , , 2172.42026329 , 357755.348086 , 359927.76835 
2 ,32000 ,16000 ,40 ,160 ,40 ,0.000181291155517 ,5.80131697655 ,18.4405789375 ,357 ,0.0011525361836 ,5715380 , , 4610.14473438 , 181291.155517 , 185901.300251 
0 ,32000 ,32000 ,20 ,128 ,20 ,0.000329253561795 ,10.5361139774 ,12.0367889404 ,520 ,0.000376149654388 ,16640020 , , 1504.59861755 , 164626.780897 , 166131.379515 
1 ,32000 ,32000 ,20 ,128 ,20 ,0.000336249656975 ,10.7599890232 ,12.2402861118 ,452 ,0.000382508940995 ,14483532 , , 1530.03576398 , 168124.828488 , 169654.864252 
2 ,32000 ,32000 ,20 ,128 ,20 ,0.000182493247092 ,5.83978390694 ,30.251139164 ,331 ,0.000945348098874 ,10599764 , , 3781.3923955 , 91246.6235459 , 95028.0159414 
0 ,32000 ,32000 ,20 ,128 ,30 ,0.000352876871824 ,11.2920598984 ,14.1014420986 ,520 ,0.000440670065582 ,16640020 , , 1762.68026233 , 176438.435912 , 178201.116174 
1 ,32000 ,32000 ,20 ,128 ,30 ,0.000358415685594 ,11.469301939 ,14.6025099754 ,494 ,0.000456328436732 ,15818004 , , 1825.31374693 , 179207.842797 , 181033.156544 
2 ,32000 ,32000 ,20 ,128 ,30 ,0.000156839281321 ,5.01885700226 ,33.29114604 ,339 ,0.00104034831375 ,10877924 , , 4161.393255 , 78419.6406603 , 82581.0339153 
0 ,32000 ,32000 ,20 ,128 ,40 ,0.000358275003731 ,11.4648001194 ,17.0405931473 ,520 ,0.000532518535852 ,16640020 , , 2130.07414341 , 179137.501866 , 181267.576009 
1 ,32000 ,32000 ,20 ,128 ,40 ,0.000364963620901 ,11.6788358688 ,16.5031471252 ,506 ,0.000515723347664 ,16215748 , , 2062.89339066 , 182481.810451 , 184544.703841 
2 ,32000 ,32000 ,20 ,128 ,40 ,0.000141910284758 ,4.54112911224 ,35.870691061 ,344 ,0.00112095909566 ,11035228 , , 4483.83638263 , 70955.1423788 , 75438.9787614 
0 ,32000 ,32000 ,20 ,160 ,20 ,0.000342950686812 ,10.974421978 ,13.7282431126 ,648 ,0.000429007597268 ,20736020 , , 1716.03038907 , 171475.343406 , 173191.373795 
1 ,32000 ,32000 ,20 ,160 ,20 ,0.000350637160242 ,11.2203891277 ,14.2217829227 ,482 ,0.000444430716336 ,15431688 , , 1777.72286534 , 175318.580121 , 177096.302986 
2 ,32000 ,32000 ,20 ,160 ,20 ,0.000219033464789 ,7.00907087326 ,37.9448440075 ,379 ,0.00118577637523 ,12158880 , , 4743.10550094 , 109516.732395 , 114259.837896 
0 ,32000 ,32000 ,20 ,160 ,30 ,0.000384233720601 ,12.2954790592 ,16.8447260857 ,648 ,0.000526397690177 ,20736020 , , 2105.59076071 , 192116.8603 , 194222.451061 
1 ,32000 ,32000 ,20 ,160 ,30 ,0.000387663751841 ,12.4052400589 ,17.3642258644 ,557 ,0.000542632058263 ,17836156 , , 2170.52823305 , 193831.87592 , 196002.404153 
2 ,32000 ,32000 ,20 ,160 ,30 ,0.000207382500172 ,6.63624000549 ,42.2986299992 ,390 ,0.00132183218747 ,12486604 , , 5287.3287499 , 103691.250086 , 108978.578836 
0 ,32000 ,32000 ,20 ,160 ,40 ,0.000409606218338 ,13.1073989868 ,19.0376808643 ,648 ,0.00059492752701 ,20736020 , , 2379.71010804 , 204803.109169 , 207182.819277 
1 ,32000 ,32000 ,20 ,160 ,40 ,0.000400469966233 ,12.8150389194 ,19.2659459114 ,584 ,0.000602060809731 ,18695764 , , 2408.24323893 , 200234.983116 , 202643.226355 
2 ,32000 ,32000 ,20 ,160 ,40 ,0.000192898124456 ,6.1727399826 ,44.0909039974 ,394 ,0.00137784074992 ,12620452 , , 5511.36299968 , 96449.0622282 , 101960.425228 
0 ,32000 ,32000 ,40 ,128 ,20 ,0.00039872906357 ,12.7593300343 ,12.5839099884 ,520 ,0.000393247187138 ,16640020 , , 1572.98874855 , 199364.531785 , 200937.520534 
1 ,32000 ,32000 ,40 ,128 ,20 ,0.000409415498376 ,13.101295948 ,13.1129090786 ,498 ,0.000409778408706 ,15940780 , , 1639.11363482 , 204707.749188 , 206346.862823 
2 ,32000 ,32000 ,40 ,128 ,20 ,0.000178886219859 ,5.72435903549 ,31.4368150234 ,334 ,0.000982400469482 ,10704972 , , 3929.60187793 , 89443.1099296 , 93372.7118075 
0 ,32000 ,32000 ,40 ,128 ,30 ,0.000407371968031 ,13.035902977 ,14.4650690556 ,520 ,0.000452033407986 ,16640020 , , 1808.13363194 , 203685.984015 , 205494.117647 
1 ,32000 ,32000 ,40 ,128 ,30 ,0.00041776778549 ,13.3685691357 ,15.0697410107 ,515 ,0.000470929406583 ,16494044 , , 1883.71762633 , 208883.892745 , 210767.610371 
2 ,32000 ,32000 ,40 ,128 ,30 ,0.000152199439704 ,4.87038207054 ,33.8187360764 ,341 ,0.00105683550239 ,10916664 , , 4227.34200954 , 76099.7198522 , 80327.0618618 
0 ,32000 ,32000 ,40 ,128 ,40 ,0.000435421779752 ,13.9334969521 ,15.9812788963 ,520 ,0.00049941496551 ,16640020 , , 1997.65986204 , 217710.889876 , 219708.549738 
1 ,32000 ,32000 ,40 ,128 ,40 ,0.000420743592083 ,13.4637949467 ,17.1032450199 ,517 ,0.000534476406872 ,16571188 , , 2137.90562749 , 210371.796042 , 212509.701669 
2 ,32000 ,32000 ,40 ,128 ,40 ,0.00015202331543 ,4.86474609375 ,35.9535439014 ,345 ,0.00112354824692 ,11047944 , , 4494.19298768 , 76011.6577148 , 80505.8507025 
0 ,32000 ,32000 ,40 ,160 ,20 ,0.000437227837741 ,13.9912908077 ,15.6393458843 ,648 ,0.000488729558885 ,20736020 , , 1954.91823554 , 218613.918871 , 220568.837106 
1 ,32000 ,32000 ,40 ,160 ,20 ,0.000447332687676 ,14.3146460056 ,16.2981989384 ,566 ,0.000509318716824 ,18116928 , , 2037.2748673 , 223666.343838 , 225703.618705 
2 ,32000 ,32000 ,40 ,160 ,20 ,0.000244951874018 ,7.83845996857 ,40.3971760273 ,386 ,0.00126241175085 ,12355420 , , 5049.64700341 , 122475.937009 , 127525.584012 
0 ,32000 ,32000 ,40 ,160 ,30 ,0.00046986631304 ,15.0357220173 ,18.256030798 ,648 ,0.000570500962436 ,20736020 , , 2282.00384974 , 234933.15652 , 237215.16037 
1 ,32000 ,32000 ,40 ,160 ,30 ,0.000471787467599 ,15.0971989632 ,18.7829070091 ,616 ,0.000586965844035 ,19730328 , , 2347.86337614 , 235893.733799 , 238241.597176 
2 ,32000 ,32000 ,40 ,160 ,30 ,0.000208091594279 ,6.65893101692 ,43.6167089939 ,392 ,0.00136302215606 ,12570364 , , 5452.08862424 , 104045.797139 , 109497.885764 
0 ,32000 ,32000 ,40 ,160 ,40 ,0.000477621152997 ,15.2838768959 ,20.9632229805 ,648 ,0.000655100718141 ,20736020 , , 2620.40287256 , 238810.576499 , 241430.979371 
1 ,32000 ,32000 ,40 ,160 ,40 ,0.000478555247188 ,15.31376791 ,20.7298510075 ,631 ,0.000647807843983 ,20206296 , , 2591.23137593 , 239277.623594 , 241868.85497 
2 ,32000 ,32000 ,40 ,160 ,40 ,0.000195468850434 ,6.25500321388 ,45.2954471111 ,395 ,0.00141548272222 ,12662252 , , 5661.93088889 , 97734.4252169 , 103396.356106 
0 ,32000 ,64000 ,20 ,128 ,20 ,0.000392510347068 ,12.5603311062 ,29.1069340706 ,520 ,0.000454795844853 ,33280020 , , 1819.18337941 , 98127.5867671 , 99946.7701465 
1 ,32000 ,64000 ,20 ,128 ,20 ,0.00039564628154 ,12.6606810093 ,30.0895462036 ,478 ,0.000470149159431 ,30619828 , , 1880.59663773 , 98911.5703851 , 100792.167023 
2 ,32000 ,64000 ,20 ,128 ,20 ,0.000181572064757 ,5.81030607224 ,73.295522213 ,351 ,0.00114524253458 ,22519300 , , 4580.97013831 , 45393.0161893 , 49973.9863276 
0 ,32000 ,64000 ,20 ,128 ,30 ,0.00041292566061 ,13.2136211395 ,34.0621819496 ,520 ,0.000532221592963 ,33280020 , , 2128.88637185 , 103231.415153 , 105360.301524 
1 ,32000 ,64000 ,20 ,128 ,30 ,0.000416410841048 ,13.3251469135 ,36.6039249897 ,507 ,0.000571936327964 ,32488852 , , 2287.74531186 , 104102.710262 , 106390.455574 
2 ,32000 ,64000 ,20 ,128 ,30 ,0.00016520896554 ,5.28668689728 ,80.9794578552 ,361 ,0.00126530402899 ,23156964 , , 5061.21611595 , 41302.241385 , 46363.4575009 
0 ,32000 ,64000 ,20 ,128 ,40 ,0.000416495278478 ,13.3278489113 ,37.9290611744 ,520 ,0.00059264158085 ,33280020 , , 2370.5663234 , 104123.819619 , 106494.385943 
1 ,32000 ,64000 ,20 ,128 ,40 ,0.000421230591834 ,13.4793789387 ,39.3312978745 ,514 ,0.000614551529288 ,32950500 , , 2458.20611715 , 105307.647958 , 107765.854076 
2 ,32000 ,64000 ,20 ,128 ,40 ,0.000159660965204 ,5.10915088654 ,86.2930810452 ,366 ,0.00134832939133 ,23460380 , , 5393.31756532 , 39915.2413011 , 45308.5588664 
0 ,32000 ,64000 ,20 ,160 ,20 ,0.000427593968809 ,13.6830070019 ,34.2870459557 ,648 ,0.000535735093057 ,41472020 , , 2142.94037223 , 106898.492202 , 109041.432574 
1 ,32000 ,64000 ,20 ,160 ,20 ,0.000438571751118 ,14.0342960358 ,35.7325978279 ,532 ,0.000558321841061 ,34088148 , , 2233.28736424 , 109642.937779 , 111876.225144 
2 ,32000 ,64000 ,20 ,160 ,20 ,0.000237187348306 ,7.5899951458 ,94.269315958 ,407 ,0.00147295806184 ,26105648 , , 5891.83224738 , 59296.8370765 , 65188.6693239 
0 ,32000 ,64000 ,20 ,160 ,30 ,0.000472022905946 ,15.1047329903 ,41.6182420254 ,648 ,0.000650285031646 ,41472020 , , 2601.14012659 , 118005.726486 , 120606.866613 
1 ,32000 ,64000 ,20 ,160 ,30 ,0.000475574098527 ,15.2183711529 ,44.2172679901 ,597 ,0.000690894812346 ,38268740 , , 2763.57924938 , 118893.524632 , 121657.103881 
2 ,32000 ,64000 ,20 ,160 ,30 ,0.000212278276682 ,6.79290485382 ,105.118407965 ,421 ,0.00164247512445 ,26954704 , , 6569.90049779 , 53069.5691705 , 59639.4696683 
0 ,32000 ,64000 ,20 ,160 ,40 ,0.000488120406866 ,15.6198530197 ,47.4023661613 ,648 ,0.000740661971271 ,41472020 , , 2962.64788508 , 122030.101717 , 124992.749602 
1 ,32000 ,64000 ,20 ,160 ,40 ,0.000492839597166 ,15.7708671093 ,48.9021539688 ,624 ,0.000764096155763 ,39998624 , , 3056.38462305 , 123209.899291 , 126266.283914 
2 ,32000 ,64000 ,20 ,160 ,40 ,0.000192006841302 ,6.14421892166 ,112.866285086 ,428 ,0.00176353570446 ,27442548 , , 7054.14281785 , 48001.7103255 , 55055.8531433 
0 ,32000 ,64000 ,40 ,128 ,20 ,0.000470886468887 ,15.0683670044 ,30.4522120953 ,520 ,0.000475815813988 ,33280020 , , 1903.26325595 , 117721.617222 , 119624.880478 
1 ,32000 ,64000 ,40 ,128 ,20 ,0.000480038434267 ,15.3612298965 ,32.1344020367 ,510 ,0.000502100031823 ,32700728 , , 2008.40012729 , 120009.608567 , 122018.008694 
2 ,32000 ,64000 ,40 ,128 ,20 ,0.000190891720355 ,6.10853505135 ,76.6800248623 ,355 ,0.00119812538847 ,22755384 , , 4792.50155389 , 47722.9300886 , 52515.4316425 
0 ,32000 ,64000 ,40 ,128 ,30 ,0.000483475066721 ,15.4712021351 ,35.184540987 ,520 ,0.000549758452922 ,33280020 , , 2199.03381169 , 120868.76668 , 123067.800492 
1 ,32000 ,64000 ,40 ,128 ,30 ,0.000486862912774 ,15.5796132088 ,37.4863171577 ,518 ,0.00058572370559 ,33194012 , , 2342.89482236 , 121715.728194 , 124058.623016 
2 ,32000 ,64000 ,40 ,128 ,30 ,0.00017715793848 ,5.66905403137 ,82.0712230206 ,363 ,0.0012823628597 ,23248028 , , 5129.45143878 , 44289.4846201 , 49418.9360589 
0 ,32000 ,64000 ,40 ,128 ,40 ,0.000485948465765 ,15.5503509045 ,38.3803369999 ,520 ,0.000599692765623 ,33280020 , , 2398.77106249 , 121487.116441 , 123885.887504 
1 ,32000 ,64000 ,40 ,128 ,40 ,0.000487289629877 ,15.5932681561 ,39.8974149227 ,519 ,0.000623397108167 ,33260704 , , 2493.58843267 , 121822.407469 , 124315.995902 
2 ,32000 ,64000 ,40 ,128 ,40 ,0.000178553313017 ,5.71370601654 ,86.267621994 ,367 ,0.00134793159366 ,23498736 , , 5391.72637463 , 44638.3282542 , 50030.0546288 
0 ,32000 ,64000 ,40 ,160 ,20 ,0.000540722995996 ,17.3031358719 ,38.0079848766 ,648 ,0.000593874763697 ,41472020 , , 2375.49905479 , 135180.748999 , 137556.248054 
1 ,32000 ,64000 ,40 ,160 ,20 ,0.000545867212117 ,17.4677507877 ,39.7854280472 ,605 ,0.000621647313237 ,38773876 , , 2486.58925295 , 136466.803029 , 138953.392282 
2 ,32000 ,64000 ,40 ,160 ,20 ,0.000237869501114 ,7.61182403564 ,100.465099096 ,414 ,0.00156976717338 ,26534108 , , 6279.06869352 , 59467.3752785 , 65746.443972 
0 ,32000 ,64000 ,40 ,160 ,30 ,0.000564081341028 ,18.0506029129 ,43.5627708435 ,648 ,0.00068066829443 ,41472020 , , 2722.67317772 , 141020.335257 , 143743.008435 
1 ,32000 ,64000 ,40 ,160 ,30 ,0.000572404533625 ,18.316945076 ,46.2271502018 ,636 ,0.000722299221903 ,40759448 , , 2889.19688761 , 143101.133406 , 145990.330294 
2 ,32000 ,64000 ,40 ,160 ,30 ,0.000198121368885 ,6.33988380432 ,106.962484121 ,424 ,0.0016712888144 ,27141452 , , 6685.15525758 , 49530.3422213 , 56215.4974788 
0 ,32000 ,64000 ,40 ,160 ,40 ,0.000569422848523 ,18.2215311527 ,47.6775400639 ,648 ,0.000744961563498 ,41472020 , , 2979.84625399 , 142355.712131 , 145335.558385 
1 ,32000 ,64000 ,40 ,160 ,40 ,0.000578331403434 ,18.5066049099 ,49.8133590221 ,644 ,0.000778333734721 ,41273760 , , 3113.33493888 , 144582.850859 , 147696.185797 
2 ,32000 ,64000 ,40 ,160 ,40 ,0.000188649341464 ,6.03677892685 ,114.352414131 ,429 ,0.0017867564708 ,27513912 , , 7147.0258832 , 47162.335366 , 54309.3612492 
0 ,32000 ,128000 ,20 ,128 ,20 ,0.000458653785288 ,14.6769211292 ,71.1862158775 ,520 ,0.000556142311543 ,66560020 , , 2224.56924617 , 57331.723161 , 59556.2924072 
1 ,32000 ,128000 ,20 ,128 ,20 ,0.000466992124915 ,14.9437479973 ,73.4157001972 ,495 ,0.000573560157791 ,63433044 , , 2294.24063116 , 58374.0156144 , 60668.2562456 
2 ,32000 ,128000 ,20 ,128 ,20 ,0.000197452247143 ,6.31847190857 ,173.532799006 ,367 ,0.00135572499223 ,47010368 , , 5422.89996892 , 24681.5308928 , 30104.4308618 
0 ,32000 ,128000 ,20 ,128 ,30 ,0.000484727621078 ,15.5112838745 ,81.3078839779 ,520 ,0.000635217843577 ,66560020 , , 2540.87137431 , 60590.9526348 , 63131.8240091 
1 ,32000 ,128000 ,20 ,128 ,30 ,0.000484300248325 ,15.4976079464 ,84.9273319244 ,513 ,0.00066349478066 ,65742220 , , 2653.97912264 , 60537.5310406 , 63191.5101632 
2 ,32000 ,128000 ,20 ,128 ,30 ,0.000194476470351 ,6.22324705124 ,191.896449089 ,377 ,0.00149919100851 ,48294864 , , 5996.76403403 , 24309.5587939 , 30306.3228279 
0 ,32000 ,128000 ,20 ,128 ,40 ,0.000482994407415 ,15.4558210373 ,92.7534959316 ,520 ,0.000724636686966 ,66560020 , , 2898.54674786 , 60374.3009269 , 63272.8476748 
1 ,32000 ,128000 ,20 ,128 ,40 ,0.000480587564409 ,15.3788020611 ,95.1691980362 ,518 ,0.000743509359658 ,66315260 , , 2974.03743863 , 60073.4455511 , 63047.4829897 
2 ,32000 ,128000 ,20 ,128 ,40 ,0.000184686504304 ,5.90996813774 ,203.012454987 ,382 ,0.00158603480458 ,48997200 , , 6344.13921833 , 23085.8130381 , 29429.9522564 
0 ,32000 ,128000 ,20 ,160 ,20 ,0.000524548940361 ,16.7855660915 ,88.7230510712 ,648 ,0.000693148836493 ,82944020 , , 2772.59534597 , 65568.6175451 , 68341.212891 
1 ,32000 ,128000 ,20 ,160 ,20 ,0.000529748685658 ,16.9519579411 ,90.7273850441 ,571 ,0.000708807695657 ,73101952 , , 2835.23078263 , 66218.5857072 , 69053.8164899 
2 ,32000 ,128000 ,20 ,160 ,20 ,0.000252699121833 ,8.08637189865 ,232.483793974 ,432 ,0.00181627964042 ,55354232 , , 7265.11856169 , 31587.3902291 , 38852.5087908 
0 ,32000 ,128000 ,20 ,160 ,30 ,0.000554610900581 ,17.7475488186 ,103.607937098 ,648 ,0.000809437008575 ,82944020 , , 3237.7480343 , 69326.3625726 , 72564.1106069 
1 ,32000 ,128000 ,20 ,160 ,30 ,0.000648997187614 ,20.7679100037 ,106.953809977 ,620 ,0.000835576640442 ,79393476 , , 3342.30656177 , 81124.6484518 , 84466.9550136 
2 ,32000 ,128000 ,20 ,160 ,30 ,0.000232521183789 ,7.44067788124 ,256.223407984 ,445 ,0.00200174537487 ,57084644 , , 8006.98149949 , 29065.1479736 , 37072.1294731 
0 ,32000 ,128000 ,20 ,160 ,40 ,0.000571105025709 ,18.2753608227 ,118.760330915 ,648 ,0.000927815085277 ,82944020 , , 3711.26034111 , 71388.1282136 , 75099.3885547 
1 ,32000 ,128000 ,20 ,160 ,40 ,0.000563438594341 ,18.0300350189 ,119.194900036 ,636 ,0.00093121015653 ,81522912 , , 3724.84062612 , 70429.8242927 , 74154.6649188 
2 ,32000 ,128000 ,20 ,160 ,40 ,0.000206059657037 ,6.59390902519 ,272.419140816 ,453 ,0.00212827453762 ,58076068 , , 8513.09815049 , 25757.4571297 , 34270.5552801 
0 ,32000 ,128000 ,40 ,128 ,20 ,0.000527068689466 ,16.8661980629 ,73.4724669456 ,520 ,0.000574003648013 ,66560020 , , 2296.01459205 , 65883.5861832 , 68179.6007752 
1 ,32000 ,128000 ,40 ,128 ,20 ,0.000536661751568 ,17.1731760502 ,76.89579916 ,515 ,0.000600748430938 ,66015128 , , 2402.99372375 , 67082.718946 , 69485.7126698 
2 ,32000 ,128000 ,40 ,128 ,20 ,0.000198198877275 ,6.3423640728 ,179.224026918 ,370 ,0.0014001877103 ,47429832 , , 5600.7508412 , 24774.8596594 , 30375.6105006 
0 ,32000 ,128000 ,40 ,128 ,30 ,0.00057380143553 ,18.361645937 ,81.8280279636 ,520 ,0.000639281468466 ,66560020 , , 2557.12587386 , 71725.1794413 , 74282.3053151 
1 ,32000 ,128000 ,40 ,128 ,30 ,0.000573301061988 ,18.3456339836 ,87.4912171364 ,519 ,0.000683525133878 ,66496616 , , 2734.10053551 , 71662.6327485 , 74396.733284 
2 ,32000 ,128000 ,40 ,128 ,30 ,0.000225329808891 ,7.21055388451 ,192.943836212 ,378 ,0.00150737372041 ,48443296 , , 6029.49488163 , 28166.2261114 , 34195.720993 
0 ,32000 ,128000 ,40 ,128 ,40 ,0.000524360753596 ,16.7795441151 ,92.8826839924 ,520 ,0.000725645968691 ,66560020 , , 2902.58387476 , 65545.0941995 , 68447.6780742 
